<?xml version="1.0" encoding="UTF-8" standalone="no"?>
<svg
   xmlns:dc="http://purl.org/dc/elements/1.1/"
   xmlns:cc="http://creativecommons.org/ns#"
   xmlns:rdf="http://www.w3.org/1999/02/22-rdf-syntax-ns#"
   xmlns:svg="http://www.w3.org/2000/svg"
   xmlns="http://www.w3.org/2000/svg"
   xmlns:sodipodi="http://sodipodi.sourceforge.net/DTD/sodipodi-0.dtd"
   xmlns:inkscape="http://www.inkscape.org/namespaces/inkscape"
   id="svg1643"
   version="1.1"
   viewBox="0 0 150 150"
   height="150mm"
   width="150mm"
   sodipodi:docname="2.svg"
   inkscape:version="0.92.3 (2405546, 2018-03-11)">
  <sodipodi:namedview
     pagecolor="#ffffff"
     bordercolor="#666666"
     borderopacity="1"
     objecttolerance="10"
     gridtolerance="10"
     guidetolerance="10"
     inkscape:pageopacity="0"
     inkscape:pageshadow="2"
     inkscape:window-width="1920"
     inkscape:window-height="1129"
     id="namedview95"
     showgrid="false"
     inkscape:zoom="0.47095833"
     inkscape:cx="283.46457"
     inkscape:cy="188.97638"
     inkscape:window-x="1440"
     inkscape:window-y="40"
     inkscape:window-maximized="1"
     inkscape:current-layer="svg1643" />
  <defs
     id="defs1637">
    <clipPath
       id="clipPath310"
       clipPathUnits="userSpaceOnUse">
      <path
         style="clip-rule:evenodd"
         id="path308"
         d="m 418.0783,469.804 3.688,-2.523 3.693,2.523 3.691,-2.523 3.694,2.523 3.692,-2.523 3.694,2.523 3.695,-2.523 3.696,2.523 3.691,-2.523 3.695,2.523 3.696,-2.523 3.697,2.523 3.702,-2.523 3.703,2.523 v -59.296 h -51.727 z"
         inkscape:connector-curvature="0" />
    </clipPath>
    <clipPath
       id="clipPath316"
       clipPathUnits="userSpaceOnUse">
      <path
         id="path314"
         d="M 0,0 H 1200 V 660 H 0 Z"
         inkscape:connector-curvature="0" />
    </clipPath>
    <clipPath
       id="clipPath326"
       clipPathUnits="userSpaceOnUse">
      <path
         id="path324"
         d="M 0,0 H 1200 V 660 H 0 Z"
         inkscape:connector-curvature="0" />
    </clipPath>
  </defs>
  <metadata
     id="metadata1640">
    <rdf:RDF>
      <cc:Work
         rdf:about="">
        <dc:format>image/svg+xml</dc:format>
        <dc:type
           rdf:resource="http://purl.org/dc/dcmitype/StillImage" />
        <dc:title></dc:title>
      </cc:Work>
    </rdf:RDF>
  </metadata>
  <g
     transform="translate(0,-172.00001)"
     id="layer1">
    <g
       id="g1538"
       transform="matrix(0.35277777,0,0,-0.35277777,-45.948253,363.09912)">
      <g
         id="g256"
         transform="matrix(1,0,0,-1,184,335)">
        <path
           d="M 81.985,0.5 H 0"
           style="fill:none;stroke:#9acaeb;stroke-width:2;stroke-linecap:butt;stroke-linejoin:miter;stroke-miterlimit:10;stroke-dasharray:none;stroke-opacity:1"
           id="path258"
           inkscape:connector-curvature="0" />
      </g>
      <g
         id="g260"
         transform="matrix(1,0,0,-1,184,215)">
        <path
           d="M 81.985,0.5 H 0"
           style="fill:none;stroke:#9acaeb;stroke-width:2;stroke-linecap:butt;stroke-linejoin:miter;stroke-miterlimit:10;stroke-dasharray:none;stroke-opacity:1"
           id="path262"
           inkscape:connector-curvature="0" />
      </g>
      <g
         id="g264"
         transform="matrix(1,0,0,-1,218.6778,204.9185)">
        <path
           d="M 0,6.315 C 0,2.828 2.827,0 6.315,0 c 3.487,0 6.314,2.828 6.314,6.315 0,3.487 -2.827,6.314 -6.314,6.314 C 2.827,12.629 0,9.802 0,6.315 Z"
           style="fill:none;stroke:#9acaeb;stroke-width:2;stroke-linecap:butt;stroke-linejoin:miter;stroke-miterlimit:10;stroke-dasharray:none;stroke-opacity:1"
           id="path266"
           inkscape:connector-curvature="0" />
      </g>
      <g
         id="g268"
         transform="matrix(1,0,0,-1,216.7833,345.8706)">
        <path
           d="M 0,0.5 H 16.418"
           style="fill:none;stroke:#9acaeb;stroke-width:2;stroke-linecap:butt;stroke-linejoin:miter;stroke-miterlimit:10;stroke-dasharray:none;stroke-opacity:1"
           id="path270"
           inkscape:connector-curvature="0" />
      </g>
      <g
         id="g272"
         transform="matrix(1,0,0,-1,200.0255,301)">
        <path
           d="M 0,21 22,43 54,0"
           style="fill:none;stroke:#bde093;stroke-width:2;stroke-linecap:butt;stroke-linejoin:miter;stroke-miterlimit:10;stroke-dasharray:none;stroke-opacity:1"
           id="path274"
           inkscape:connector-curvature="0" />
      </g>
      <g
         id="g276"
         transform="matrix(1,0,0,-1,176.9999,358)">
        <path
           d="M 82.278,170.5 H 13.707 C 6.137,170.5 0,164.363 0,156.793 V 13.707 C 0,6.137 6.137,0 13.707,0 h 68.571 c 7.57,0 13.708,6.137 13.708,13.707 v 143.086 c 0,7.57 -6.138,13.707 -13.708,13.707 z"
           style="fill:none;stroke:#f78d2c;stroke-width:2;stroke-linecap:butt;stroke-linejoin:miter;stroke-miterlimit:10;stroke-dasharray:none;stroke-opacity:1"
           id="path278"
           inkscape:connector-curvature="0" />
      </g>
      <g
         id="g280"
         transform="matrix(1,0,0,-1,317.9453,368.1037)">
        <path
           d="m 0.908,0 c 5.611,4.523 9.201,11.454 9.201,19.222 0,8.18 -3.98,15.43 -10.109,19.92"
           style="fill:none;stroke:#ffffff;stroke-width:2;stroke-linecap:butt;stroke-linejoin:miter;stroke-miterlimit:10;stroke-dasharray:none;stroke-opacity:1"
           id="path282"
           inkscape:connector-curvature="0" />
      </g>
      <g
         id="g284"
         transform="matrix(1,0,0,-1,308.4079,359.6472)">
        <path
           d="m 1.003,0 c 3.762,2.114 6.305,6.143 6.305,10.765 0,5.023 -3.001,9.344 -7.308,11.27"
           style="fill:none;stroke:#ffffff;stroke-width:2;stroke-linecap:butt;stroke-linejoin:miter;stroke-miterlimit:10;stroke-dasharray:none;stroke-opacity:1"
           id="path286"
           inkscape:connector-curvature="0" />
      </g>
      <g
         id="g288"
         transform="matrix(1,0,0,-1,328.8334,377.9357)">
        <path
           d="M 0.85,0 C 8.765,7.171 13.737,17.532 13.737,29.054 13.737,40.983 8.408,51.667 0,58.856"
           style="fill:none;stroke:#ffffff;stroke-width:2;stroke-linecap:butt;stroke-linejoin:miter;stroke-miterlimit:10;stroke-dasharray:none;stroke-opacity:1"
           id="path290"
           inkscape:connector-curvature="0" />
      </g>
      <g
         id="g292"
         transform="matrix(1,0,0,-1,339.1259,387.2756)">
        <path
           d="M 0.764,0 C 10.91,9.652 17.235,23.285 17.235,38.394 17.235,53.879 10.592,67.813 0,77.5"
           style="fill:none;stroke:#ffffff;stroke-width:2;stroke-linecap:butt;stroke-linejoin:miter;stroke-miterlimit:10;stroke-dasharray:none;stroke-opacity:1"
           id="path294"
           inkscape:connector-curvature="0" />
      </g>
      <g
         id="g296"
         transform="matrix(1,0,0,-1,396.0006,423.124)">
        <path
           d="M 80.548,170.32 H 15.335 C 6.865,170.32 0,163.454 0,154.985 V 15.336 C 0,6.866 6.865,0 15.335,0 h 65.213 c 8.469,0 15.335,6.866 15.335,15.336 v 139.649 c 0,8.469 -6.866,15.335 -15.335,15.335 z"
           style="fill:none;stroke:#f78d2c;stroke-width:2;stroke-linecap:butt;stroke-linejoin:miter;stroke-miterlimit:10;stroke-dasharray:none;stroke-opacity:1"
           id="path298"
           inkscape:connector-curvature="0" />
      </g>
      <g
         id="g300"
         transform="matrix(1,0,0,-1,496.67,396.304)">
        <path
           d="M 0,108 H 12.021 V 0 H 0"
           style="fill:none;stroke:#f78d2c;stroke-width:2;stroke-linecap:butt;stroke-linejoin:miter;stroke-miterlimit:10;stroke-dasharray:none;stroke-opacity:1"
           id="path302"
           inkscape:connector-curvature="0" />
      </g>
      <g
         id="g304">
        <g
           id="g306"
           clip-path="url(#clipPath310)">
          <g
             id="g312"
             clip-path="url(#clipPath316)">
            <path
               d="m 413.0783,405.508 h 61.727 v 69.296 h -61.727 z"
               style="fill:#1077b4;fill-opacity:1;fill-rule:nonzero;stroke:none"
               id="path318"
               inkscape:connector-curvature="0" />
          </g>
        </g>
      </g>
      <g
         id="g320">
        <g
           id="g322"
           clip-path="url(#clipPath326)">
          <g
             id="g328"
             transform="matrix(1,0,0,-1,418.0783,469.804)">
            <path
               d="M 0,0 3.688,2.523 7.381,0 11.072,2.523 14.766,0 18.458,2.523 22.152,0 25.847,2.523 29.543,0 33.234,2.523 36.929,0 40.625,2.523 44.322,0 48.024,2.523 51.727,0 V 59.296 H 0 Z"
               style="fill:none;stroke:#9acaeb;stroke-width:2;stroke-linecap:butt;stroke-linejoin:miter;stroke-miterlimit:10;stroke-dasharray:none;stroke-opacity:1"
               id="path330"
               inkscape:connector-curvature="0" />
          </g>
          <g
             id="g332"
             transform="matrix(1,0,0,-1,432.2717,460.2107)">
            <path
               d="M 0,0.5 H 22.709"
               style="fill:none;stroke:#9acaeb;stroke-width:2;stroke-linecap:butt;stroke-linejoin:miter;stroke-miterlimit:10;stroke-dasharray:none;stroke-opacity:1"
               id="path334"
               inkscape:connector-curvature="0" />
          </g>
          <g
             id="g336"
             transform="matrix(1,0,0,-1,422.1789,450.118)">
            <path
               d="M 0,0.5 H 28.387"
               style="fill:none;stroke:#9acaeb;stroke-width:2;stroke-linecap:butt;stroke-linejoin:miter;stroke-miterlimit:10;stroke-dasharray:none;stroke-opacity:1"
               id="path338"
               inkscape:connector-curvature="0" />
          </g>
          <g
             id="g340"
             transform="matrix(1,0,0,-1,460.0276,450.118)">
            <path
               d="M 0,0.5 H 5.677"
               style="fill:none;stroke:#9acaeb;stroke-width:2;stroke-linecap:butt;stroke-linejoin:miter;stroke-miterlimit:10;stroke-dasharray:none;stroke-opacity:1"
               id="path342"
               inkscape:connector-curvature="0" />
          </g>
          <g
             id="g344"
             transform="matrix(1,0,0,-1,422.1789,443.8099)">
            <path
               d="M 0,0.5 H 15.77"
               style="fill:none;stroke:#9acaeb;stroke-width:2;stroke-linecap:butt;stroke-linejoin:miter;stroke-miterlimit:10;stroke-dasharray:none;stroke-opacity:1"
               id="path346"
               inkscape:connector-curvature="0" />
          </g>
          <g
             id="g348"
             transform="matrix(1,0,0,-1,460.0276,443.8099)">
            <path
               d="M 0,0.5 H 5.677"
               style="fill:none;stroke:#9acaeb;stroke-width:2;stroke-linecap:butt;stroke-linejoin:miter;stroke-miterlimit:10;stroke-dasharray:none;stroke-opacity:1"
               id="path350"
               inkscape:connector-curvature="0" />
          </g>
          <g
             id="g352"
             transform="matrix(1,0,0,-1,422.1789,437.5018)">
            <path
               d="M 0,0.5 H 22.078"
               style="fill:none;stroke:#9acaeb;stroke-width:2;stroke-linecap:butt;stroke-linejoin:miter;stroke-miterlimit:10;stroke-dasharray:none;stroke-opacity:1"
               id="path354"
               inkscape:connector-curvature="0" />
          </g>
          <g
             id="g356"
             transform="matrix(1,0,0,-1,460.0276,437.5018)">
            <path
               d="M 0,0.5 H 5.677"
               style="fill:none;stroke:#9acaeb;stroke-width:2;stroke-linecap:butt;stroke-linejoin:miter;stroke-miterlimit:10;stroke-dasharray:none;stroke-opacity:1"
               id="path358"
               inkscape:connector-curvature="0" />
          </g>
          <g
             id="g360"
             transform="matrix(1,0,0,-1,422.1789,431.1936)">
            <path
               d="M 0,0.5 H 14.509"
               style="fill:none;stroke:#9acaeb;stroke-width:2;stroke-linecap:butt;stroke-linejoin:miter;stroke-miterlimit:10;stroke-dasharray:none;stroke-opacity:1"
               id="path362"
               inkscape:connector-curvature="0" />
          </g>
          <g
             id="g364"
             transform="matrix(1,0,0,-1,460.0276,431.1936)">
            <path
               d="M 0,0.5 H 5.677"
               style="fill:none;stroke:#9acaeb;stroke-width:2;stroke-linecap:butt;stroke-linejoin:miter;stroke-miterlimit:10;stroke-dasharray:none;stroke-opacity:1"
               id="path366"
               inkscape:connector-curvature="0" />
          </g>
          <g
             id="g368"
             transform="matrix(1,0,0,-1,405,393)">
            <path
               d="M 78.221,0.5 H 0"
               style="fill:none;stroke:#9acaeb;stroke-width:2;stroke-linecap:butt;stroke-linejoin:miter;stroke-miterlimit:10;stroke-dasharray:none;stroke-opacity:1"
               id="path370"
               inkscape:connector-curvature="0" />
          </g>
          <g
             id="g372"
             transform="matrix(1,0,0,-1,411,411)">
            <path
               d="M 65,0.5 H 0"
               style="fill:none;stroke:#61b2e3;stroke-width:2;stroke-linecap:butt;stroke-linejoin:miter;stroke-miterlimit:10;stroke-dasharray:none;stroke-opacity:1"
               id="path374"
               inkscape:connector-curvature="0" />
          </g>
          <g
             id="g376"
             transform="matrix(1,0,0,-1,405,347.1876)">
            <path
               d="M 78.221,0.5 H 0"
               style="fill:none;stroke:#9acaeb;stroke-width:2;stroke-linecap:butt;stroke-linejoin:miter;stroke-miterlimit:10;stroke-dasharray:none;stroke-opacity:1"
               id="path378"
               inkscape:connector-curvature="0" />
          </g>
          <g
             id="g380"
             transform="matrix(1,0,0,-1,404.672,280.56)">
            <path
               d="M 0,10.093 H 23.067 V 0 H 0 Z"
               style="fill:none;stroke:#f78d2c;stroke-width:2;stroke-linecap:butt;stroke-linejoin:miter;stroke-miterlimit:10;stroke-dasharray:none;stroke-opacity:1"
               id="path382"
               inkscape:connector-curvature="0" />
          </g>
          <g
             id="g384"
             transform="matrix(1,0,0,-1,431.934,280.56)">
            <path
               d="M 0,10.093 H 23.067 V 0 H 0 Z"
               style="fill:none;stroke:#febf85;stroke-width:2;stroke-linecap:butt;stroke-linejoin:miter;stroke-miterlimit:10;stroke-dasharray:none;stroke-opacity:1"
               id="path386"
               inkscape:connector-curvature="0" />
          </g>
          <g
             id="g388"
             transform="matrix(1,0,0,-1,459.195,280.56)">
            <path
               d="M 0,10.093 H 23.067 V 0 H 0 Z"
               style="fill:none;stroke:#6cc04a;stroke-width:2;stroke-linecap:butt;stroke-linejoin:miter;stroke-miterlimit:10;stroke-dasharray:none;stroke-opacity:1"
               id="path390"
               inkscape:connector-curvature="0" />
          </g>
          <g
             id="g392"
             transform="matrix(1,0,0,-1,404.672,298.223)">
            <path
               d="M 0,10.093 H 23.067 V 0 H 0 Z"
               style="fill:none;stroke:#9acaeb;stroke-width:2;stroke-linecap:butt;stroke-linejoin:miter;stroke-miterlimit:10;stroke-dasharray:none;stroke-opacity:1"
               id="path394"
               inkscape:connector-curvature="0" />
          </g>
          <g
             id="g396"
             transform="matrix(1,0,0,-1,431.934,298.223)">
            <path
               d="M 0,10.093 H 23.067 V 0 H 0 Z"
               style="fill:none;stroke:#9acaeb;stroke-width:2;stroke-linecap:butt;stroke-linejoin:miter;stroke-miterlimit:10;stroke-dasharray:none;stroke-opacity:1"
               id="path398"
               inkscape:connector-curvature="0" />
          </g>
          <g
             id="g400"
             transform="matrix(1,0,0,-1,459.195,298.223)">
            <path
               d="M 0,10.093 H 23.067 V 0 H 0 Z"
               style="fill:none;stroke:#9acaeb;stroke-width:2;stroke-linecap:butt;stroke-linejoin:miter;stroke-miterlimit:10;stroke-dasharray:none;stroke-opacity:1"
               id="path402"
               inkscape:connector-curvature="0" />
          </g>
          <g
             id="g404"
             transform="matrix(1,0,0,-1,404.672,315.885)">
            <path
               d="M 0,10.093 H 23.067 V 0 H 0 Z"
               style="fill:none;stroke:#9acaeb;stroke-width:2;stroke-linecap:butt;stroke-linejoin:miter;stroke-miterlimit:10;stroke-dasharray:none;stroke-opacity:1"
               id="path406"
               inkscape:connector-curvature="0" />
          </g>
          <g
             id="g408"
             transform="matrix(1,0,0,-1,431.934,315.885)">
            <path
               d="M 0,10.093 H 23.067 V 0 H 0 Z"
               style="fill:none;stroke:#9acaeb;stroke-width:2;stroke-linecap:butt;stroke-linejoin:miter;stroke-miterlimit:10;stroke-dasharray:none;stroke-opacity:1"
               id="path410"
               inkscape:connector-curvature="0" />
          </g>
          <g
             id="g412"
             transform="matrix(1,0,0,-1,459.195,315.885)">
            <path
               d="M 0,10.093 H 23.067 V 0 H 0 Z"
               style="fill:none;stroke:#9acaeb;stroke-width:2;stroke-linecap:butt;stroke-linejoin:miter;stroke-miterlimit:10;stroke-dasharray:none;stroke-opacity:1"
               id="path414"
               inkscape:connector-curvature="0" />
          </g>
          <g
             id="g416"
             transform="matrix(1,0,0,-1,404.672,333.548)">
            <path
               d="M 0,10.093 H 23.067 V 0 H 0 Z"
               style="fill:none;stroke:#9acaeb;stroke-width:2;stroke-linecap:butt;stroke-linejoin:miter;stroke-miterlimit:10;stroke-dasharray:none;stroke-opacity:1"
               id="path418"
               inkscape:connector-curvature="0" />
          </g>
          <g
             id="g420"
             transform="matrix(1,0,0,-1,431.934,333.548)">
            <path
               d="M 0,10.093 H 23.067 V 0 H 0 Z"
               style="fill:none;stroke:#9acaeb;stroke-width:2;stroke-linecap:butt;stroke-linejoin:miter;stroke-miterlimit:10;stroke-dasharray:none;stroke-opacity:1"
               id="path422"
               inkscape:connector-curvature="0" />
          </g>
          <g
             id="g424"
             transform="matrix(1,0,0,-1,459.195,333.548)">
            <path
               d="M 0,10.093 H 23.067 V 0 H 0 Z"
               style="fill:none;stroke:#9acaeb;stroke-width:2;stroke-linecap:butt;stroke-linejoin:miter;stroke-miterlimit:10;stroke-dasharray:none;stroke-opacity:1"
               id="path426"
               inkscape:connector-curvature="0" />
          </g>
          <g
             id="g428"
             transform="matrix(1,0,0,-1,424.1579,386.3502)">
            <path
               d="M 0,15.429 16.164,31.593 39.674,0"
               style="fill:none;stroke:#bde093;stroke-width:2;stroke-linecap:butt;stroke-linejoin:miter;stroke-miterlimit:10;stroke-dasharray:none;stroke-opacity:1"
               id="path430"
               inkscape:connector-curvature="0" />
          </g>
        </g>
      </g>
    </g>
  </g>
</svg>
