<?xml version="1.0" encoding="UTF-8" standalone="no"?>
<svg
   xmlns:dc="http://purl.org/dc/elements/1.1/"
   xmlns:cc="http://creativecommons.org/ns#"
   xmlns:rdf="http://www.w3.org/1999/02/22-rdf-syntax-ns#"
   xmlns:svg="http://www.w3.org/2000/svg"
   xmlns="http://www.w3.org/2000/svg"
   xmlns:sodipodi="http://sodipodi.sourceforge.net/DTD/sodipodi-0.dtd"
   xmlns:inkscape="http://www.inkscape.org/namespaces/inkscape"
   id="svg1643"
   version="1.1"
   viewBox="0 0 150 150"
   height="150mm"
   width="150mm"
   sodipodi:docname="3.svg"
   inkscape:version="0.92.3 (2405546, 2018-03-11)">
  <sodipodi:namedview
     pagecolor="#ffffff"
     bordercolor="#666666"
     borderopacity="1"
     objecttolerance="10"
     gridtolerance="10"
     guidetolerance="10"
     inkscape:pageopacity="0"
     inkscape:pageshadow="2"
     inkscape:window-width="1440"
     inkscape:window-height="739"
     id="namedview131"
     showgrid="false"
     inkscape:snap-to-guides="true"
     inkscape:zoom="0.47095833"
     inkscape:cx="-208.08635"
     inkscape:cy="188.97638"
     inkscape:window-x="0"
     inkscape:window-y="40"
     inkscape:window-maximized="1"
     inkscape:current-layer="svg1643" />
  <defs
     id="defs1637">
    <clipPath
       id="clipPath310"
       clipPathUnits="userSpaceOnUse">
      <path
         style="clip-rule:evenodd"
         id="path308"
         d="m 418.0783,469.804 3.688,-2.523 3.693,2.523 3.691,-2.523 3.694,2.523 3.692,-2.523 3.694,2.523 3.695,-2.523 3.696,2.523 3.691,-2.523 3.695,2.523 3.696,-2.523 3.697,2.523 3.702,-2.523 3.703,2.523 v -59.296 h -51.727 z"
         inkscape:connector-curvature="0" />
    </clipPath>
    <clipPath
       id="clipPath316"
       clipPathUnits="userSpaceOnUse">
      <path
         id="path314"
         d="M 0,0 H 1200 V 660 H 0 Z"
         inkscape:connector-curvature="0" />
    </clipPath>
    <clipPath
       id="clipPath326"
       clipPathUnits="userSpaceOnUse">
      <path
         id="path324"
         d="M 0,0 H 1200 V 660 H 0 Z"
         inkscape:connector-curvature="0" />
    </clipPath>
    <clipPath
       id="clipPath262"
       clipPathUnits="userSpaceOnUse">
      <path
         id="path260"
         d="M 0,0 H 1200 V 660 H 0 Z"
         inkscape:connector-curvature="0" />
    </clipPath>
    <clipPath
       id="clipPath278"
       clipPathUnits="userSpaceOnUse">
      <path
         style="clip-rule:evenodd"
         id="path276"
         d="m 204.363,447.1042 2.567,-1.756 2.57,1.756 2.568,-1.756 2.57,1.756 2.57,-1.756 2.57,1.756 2.571,-1.756 2.572,1.756 2.568,-1.756 2.571,1.756 2.573,-1.756 2.572,1.756 2.576,-1.756 2.576,1.756 v -41.262 h -35.994 z"
         inkscape:connector-curvature="0" />
    </clipPath>
    <clipPath
       id="clipPath284"
       clipPathUnits="userSpaceOnUse">
      <path
         id="path282"
         d="M 0,0 H 1200 V 660 H 0 Z"
         inkscape:connector-curvature="0" />
    </clipPath>
    <clipPath
       id="clipPath294"
       clipPathUnits="userSpaceOnUse">
      <path
         id="path292"
         d="M 0,0 H 1200 V 660 H 0 Z"
         inkscape:connector-curvature="0" />
    </clipPath>
    <clipPath
       id="clipPath406"
       clipPathUnits="userSpaceOnUse">
      <path
         style="clip-rule:evenodd"
         id="path404"
         d="m 427.2243,343.5349 h -198.066 c -5.429,0 -9.83,-4.4 -9.83,-9.828 v -124.482 h 217.725 v 124.482 c 0,5.428 -4.4,9.828 -9.829,9.828"
         inkscape:connector-curvature="0" />
    </clipPath>
    <clipPath
       id="clipPath412"
       clipPathUnits="userSpaceOnUse">
      <path
         id="path410"
         d="M 0,0 H 1200 V 660 H 0 Z"
         inkscape:connector-curvature="0" />
    </clipPath>
    <clipPath
       id="clipPath422"
       clipPathUnits="userSpaceOnUse">
      <path
         id="path420"
         d="M 0,0 H 1200 V 660 H 0 Z"
         inkscape:connector-curvature="0" />
    </clipPath>
    <clipPath
       id="clipPath450"
       clipPathUnits="userSpaceOnUse">
      <path
         style="clip-rule:evenodd"
         id="path448"
         d="m 479.9011,253.6042 h -52.886 c -5.839,0 -10.572,4.733 -10.572,10.572 v 110.356 c 0,5.839 4.733,10.572 10.572,10.572 h 52.886 c 5.839,0 10.572,-4.733 10.572,-10.572 v -110.356 c 0,-5.839 -4.733,-10.572 -10.572,-10.572"
         inkscape:connector-curvature="0" />
    </clipPath>
    <clipPath
       id="clipPath456"
       clipPathUnits="userSpaceOnUse">
      <path
         id="path454"
         d="M 0,0 H 1200 V 660 H 0 Z"
         inkscape:connector-curvature="0" />
    </clipPath>
    <clipPath
       id="clipPath466"
       clipPathUnits="userSpaceOnUse">
      <path
         id="path464"
         d="M 0,0 H 1200 V 660 H 0 Z"
         inkscape:connector-curvature="0" />
    </clipPath>
  </defs>
  <metadata
     id="metadata1640">
    <rdf:RDF>
      <cc:Work
         rdf:about="">
        <dc:format>image/svg+xml</dc:format>
        <dc:type
           rdf:resource="http://purl.org/dc/dcmitype/StillImage" />
        <dc:title />
      </cc:Work>
    </rdf:RDF>
  </metadata>
  <g
     id="g1414"
     transform="matrix(0.35277777,0,0,-0.35277777,-44.851414,188.43332)">
    <g
       id="g256">
      <g
         clip-path="url(#clipPath262)"
         id="g258">
        <g
           transform="matrix(1,0,0,-1,188.9995,414.6222)"
           id="g264">
          <path
             inkscape:connector-curvature="0"
             id="path266"
             style="fill:none;stroke:#9acaeb;stroke-width:2;stroke-linecap:butt;stroke-linejoin:miter;stroke-miterlimit:10;stroke-dasharray:none;stroke-opacity:1"
             d="M 56.05,118.518 H 10.671 C 4.779,118.518 0,113.741 0,107.847 V 10.671 C 0,4.778 4.779,0 10.671,0 H 56.05 c 5.894,0 10.672,4.778 10.672,10.671 v 97.176 c 0,5.894 -4.778,10.671 -10.672,10.671 z" />
        </g>
        <g
           transform="matrix(1,0,0,-1,259.7478,395.9587)"
           id="g268">
          <path
             inkscape:connector-curvature="0"
             id="path270"
             style="fill:none;stroke:#9acaeb;stroke-width:2;stroke-linecap:butt;stroke-linejoin:miter;stroke-miterlimit:10;stroke-dasharray:none;stroke-opacity:1"
             d="M 0,0 H 8.364 V 75.151 H 0" />
        </g>
      </g>
    </g>
    <g
       id="g272">
      <g
         clip-path="url(#clipPath278)"
         id="g274">
        <g
           clip-path="url(#clipPath284)"
           id="g280">
          <path
             inkscape:connector-curvature="0"
             id="path286"
             style="fill:#1077b4;fill-opacity:1;fill-rule:nonzero;stroke:none"
             d="m 199.363,400.8422 h 45.994 v 51.262 h -45.994 z" />
        </g>
      </g>
    </g>
    <g
       id="g288">
      <g
         clip-path="url(#clipPath294)"
         id="g290">
        <g
           transform="matrix(1,0,0,-1,204.363,447.1042)"
           id="g296">
          <path
             inkscape:connector-curvature="0"
             id="path298"
             style="fill:none;stroke:#febf85;stroke-width:2;stroke-linecap:butt;stroke-linejoin:miter;stroke-miterlimit:10;stroke-dasharray:none;stroke-opacity:1"
             d="M 0,0 2.567,1.756 5.137,0 7.705,1.756 10.275,0 12.845,1.756 15.415,0 17.986,1.756 20.558,0 23.126,1.756 25.697,0 28.27,1.756 30.842,0 33.418,1.756 35.994,0 V 41.262 H 0 Z" />
        </g>
        <g
           transform="matrix(1,0,0,-1,214.24,440.5808)"
           id="g300">
          <path
             inkscape:connector-curvature="0"
             id="path302"
             style="fill:none;stroke:#bde093;stroke-width:2;stroke-linecap:butt;stroke-linejoin:miter;stroke-miterlimit:10;stroke-dasharray:none;stroke-opacity:1"
             d="M 0,0.5 H 15.802" />
        </g>
        <g
           transform="matrix(1,0,0,-1,209.2165,433.5574)"
           id="g304">
          <path
             inkscape:connector-curvature="0"
             id="path306"
             style="fill:none;stroke:#bde093;stroke-width:2;stroke-linecap:butt;stroke-linejoin:miter;stroke-miterlimit:10;stroke-dasharray:none;stroke-opacity:1"
             d="M 0,0.5 H 17.753" />
        </g>
        <g
           transform="matrix(1,0,0,-1,233.5534,433.5574)"
           id="g308">
          <path
             inkscape:connector-curvature="0"
             id="path310"
             style="fill:none;stroke:#bde093;stroke-width:2;stroke-linecap:butt;stroke-linejoin:miter;stroke-miterlimit:10;stroke-dasharray:none;stroke-opacity:1"
             d="M 0,0.5 H 1.951" />
        </g>
        <g
           transform="matrix(1,0,0,-1,209.2165,429.1677)"
           id="g312">
          <path
             inkscape:connector-curvature="0"
             id="path314-3"
             style="fill:none;stroke:#bde093;stroke-width:2;stroke-linecap:butt;stroke-linejoin:miter;stroke-miterlimit:10;stroke-dasharray:none;stroke-opacity:1"
             d="M 0,0.5 H 8.974" />
        </g>
        <g
           transform="matrix(1,0,0,-1,233.5534,429.1677)"
           id="g316">
          <path
             inkscape:connector-curvature="0"
             id="path318"
             style="fill:none;stroke:#bde093;stroke-width:2;stroke-linecap:butt;stroke-linejoin:miter;stroke-miterlimit:10;stroke-dasharray:none;stroke-opacity:1"
             d="M 0,0.5 H 1.951" />
        </g>
        <g
           transform="matrix(1,0,0,-1,209.2165,424.779)"
           id="g320">
          <path
             inkscape:connector-curvature="0"
             id="path322"
             style="fill:none;stroke:#bde093;stroke-width:2;stroke-linecap:butt;stroke-linejoin:miter;stroke-miterlimit:10;stroke-dasharray:none;stroke-opacity:1"
             d="M 0,0.5 H 13.363" />
        </g>
        <g
           transform="matrix(1,0,0,-1,233.5534,424.779)"
           id="g324">
          <path
             inkscape:connector-curvature="0"
             id="path326"
             style="fill:none;stroke:#bde093;stroke-width:2;stroke-linecap:butt;stroke-linejoin:miter;stroke-miterlimit:10;stroke-dasharray:none;stroke-opacity:1"
             d="M 0,0.5 H 1.951" />
        </g>
        <g
           transform="matrix(1,0,0,-1,209.2165,420.3894)"
           id="g328">
          <path
             inkscape:connector-curvature="0"
             id="path330"
             style="fill:none;stroke:#bde093;stroke-width:2;stroke-linecap:butt;stroke-linejoin:miter;stroke-miterlimit:10;stroke-dasharray:none;stroke-opacity:1"
             d="M 0,0.5 H 8.096" />
        </g>
        <g
           transform="matrix(1,0,0,-1,233.5534,420.3894)"
           id="g332">
          <path
             inkscape:connector-curvature="0"
             id="path334"
             style="fill:none;stroke:#bde093;stroke-width:2;stroke-linecap:butt;stroke-linejoin:miter;stroke-miterlimit:10;stroke-dasharray:none;stroke-opacity:1"
             d="M 0,0.5 H 1.951" />
        </g>
        <g
           transform="matrix(1,0,0,-1,195.1449,358.2722)"
           id="g336">
          <path
             inkscape:connector-curvature="0"
             id="path338"
             style="fill:none;stroke:#bde093;stroke-width:2;stroke-linecap:butt;stroke-linejoin:miter;stroke-miterlimit:10;stroke-dasharray:none;stroke-opacity:1"
             d="M 54.431,0.5 H 0" />
        </g>
        <g
           transform="matrix(1,0,0,-1,195,395)"
           id="g340">
          <path
             inkscape:connector-curvature="0"
             id="path342"
             style="fill:none;stroke:#bde093;stroke-width:2;stroke-linecap:butt;stroke-linejoin:miter;stroke-miterlimit:10;stroke-dasharray:none;stroke-opacity:1"
             d="M 0,0.5 H 54.431" />
        </g>
        <g
           transform="matrix(1,0,0,-1,199,406.3894)"
           id="g344">
          <path
             inkscape:connector-curvature="0"
             id="path346"
             style="fill:none;stroke:#f78d2c;stroke-width:2;stroke-linecap:butt;stroke-linejoin:miter;stroke-miterlimit:10;stroke-dasharray:none;stroke-opacity:1"
             d="M 0,0.5472 47,0.5" />
        </g>
        <g
           transform="matrix(1,0,0,-1,195.0349,312.4373)"
           id="g348">
          <path
             inkscape:connector-curvature="0"
             id="path350"
             style="fill:none;stroke:#bde093;stroke-width:2;stroke-linecap:butt;stroke-linejoin:miter;stroke-miterlimit:10;stroke-dasharray:none;stroke-opacity:1"
             d="M 0,0.5 H 16.051" />
        </g>
        <g
           transform="matrix(1,0,0,-1,214.0046,312.4373)"
           id="g352">
          <path
             inkscape:connector-curvature="0"
             id="path354"
             style="fill:none;stroke:#bde093;stroke-width:2;stroke-linecap:butt;stroke-linejoin:miter;stroke-miterlimit:10;stroke-dasharray:none;stroke-opacity:1"
             d="M 0,0.5 H 16.052" />
        </g>
        <g
           transform="matrix(1,0,0,-1,232.9743,312.4373)"
           id="g356">
          <path
             inkscape:connector-curvature="0"
             id="path358"
             style="fill:none;stroke:#bde093;stroke-width:2;stroke-linecap:butt;stroke-linejoin:miter;stroke-miterlimit:10;stroke-dasharray:none;stroke-opacity:1"
             d="M 0,0.5 H 16.052" />
        </g>
        <g
           transform="matrix(1,0,0,-1,195.0349,324.7283)"
           id="g360">
          <path
             inkscape:connector-curvature="0"
             id="path362"
             style="fill:none;stroke:#bde093;stroke-width:2;stroke-linecap:butt;stroke-linejoin:miter;stroke-miterlimit:10;stroke-dasharray:none;stroke-opacity:1"
             d="M 0,0.5 H 16.051" />
        </g>
        <g
           transform="matrix(1,0,0,-1,214.0046,324.7283)"
           id="g364">
          <path
             inkscape:connector-curvature="0"
             id="path366"
             style="fill:none;stroke:#bde093;stroke-width:2;stroke-linecap:butt;stroke-linejoin:miter;stroke-miterlimit:10;stroke-dasharray:none;stroke-opacity:1"
             d="M 0,0.5 H 16.052" />
        </g>
        <g
           transform="matrix(1,0,0,-1,232.9743,324.7283)"
           id="g368">
          <path
             inkscape:connector-curvature="0"
             id="path370"
             style="fill:none;stroke:#bde093;stroke-width:2;stroke-linecap:butt;stroke-linejoin:miter;stroke-miterlimit:10;stroke-dasharray:none;stroke-opacity:1"
             d="M 0,0.5 H 16.052" />
        </g>
        <g
           transform="matrix(1,0,0,-1,195.0349,337.0193)"
           id="g372">
          <path
             inkscape:connector-curvature="0"
             id="path374"
             style="fill:none;stroke:#bde093;stroke-width:2;stroke-linecap:butt;stroke-linejoin:miter;stroke-miterlimit:10;stroke-dasharray:none;stroke-opacity:1"
             d="M 0,0.5 H 16.051" />
        </g>
        <g
           transform="matrix(1,0,0,-1,214.0046,337.0193)"
           id="g376">
          <path
             inkscape:connector-curvature="0"
             id="path378"
             style="fill:none;stroke:#bde093;stroke-width:2;stroke-linecap:butt;stroke-linejoin:miter;stroke-miterlimit:10;stroke-dasharray:none;stroke-opacity:1"
             d="M 0,0.5 H 16.052" />
        </g>
        <g
           transform="matrix(1,0,0,-1,232.9743,337.0193)"
           id="g380">
          <path
             inkscape:connector-curvature="0"
             id="path382"
             style="fill:none;stroke:#bde093;stroke-width:2;stroke-linecap:butt;stroke-linejoin:miter;stroke-miterlimit:10;stroke-dasharray:none;stroke-opacity:1"
             d="M 0,0.5 H 16.052" />
        </g>
        <g
           transform="matrix(1,0,0,-1,195.0349,349.3103)"
           id="g384">
          <path
             inkscape:connector-curvature="0"
             id="path386"
             style="fill:none;stroke:#bde093;stroke-width:2;stroke-linecap:butt;stroke-linejoin:miter;stroke-miterlimit:10;stroke-dasharray:none;stroke-opacity:1"
             d="M 0,0.5 H 16.051" />
        </g>
        <g
           transform="matrix(1,0,0,-1,214.0046,349.3103)"
           id="g388">
          <path
             inkscape:connector-curvature="0"
             id="path390"
             style="fill:none;stroke:#bde093;stroke-width:2;stroke-linecap:butt;stroke-linejoin:miter;stroke-miterlimit:10;stroke-dasharray:none;stroke-opacity:1"
             d="M 0,0.5 H 16.052" />
        </g>
        <g
           transform="matrix(1,0,0,-1,232.9743,349.3103)"
           id="g392">
          <path
             inkscape:connector-curvature="0"
             id="path394"
             style="fill:none;stroke:#bde093;stroke-width:2;stroke-linecap:butt;stroke-linejoin:miter;stroke-miterlimit:10;stroke-dasharray:none;stroke-opacity:1"
             d="M 0,0.5 H 16.052" />
        </g>
        <g
           transform="matrix(1,0,0,-1,208.5935,389.0326)"
           id="g396">
          <path
             inkscape:connector-curvature="0"
             id="path398"
             style="fill:none;stroke:#ffffff;stroke-width:2;stroke-linecap:butt;stroke-linejoin:miter;stroke-miterlimit:10;stroke-dasharray:none;stroke-opacity:1"
             d="M 0,10.736 11.248,21.984 27.607,0" />
        </g>
      </g>
    </g>
    <g
       id="g400">
      <g
         clip-path="url(#clipPath406)"
         id="g402">
        <g
           clip-path="url(#clipPath412)"
           id="g408">
          <path
             inkscape:connector-curvature="0"
             id="path414"
             style="fill:#1077b4;fill-opacity:1;fill-rule:nonzero;stroke:none"
             d="m 214.3283,204.2249 h 227.725 v 144.31 h -227.725 z" />
        </g>
      </g>
    </g>
    <g
       id="g416">
      <g
         clip-path="url(#clipPath422)"
         id="g418">
        <g
           transform="matrix(1,0,0,-1,219.3283,343.5349)"
           id="g424">
          <path
             inkscape:connector-curvature="0"
             id="path426"
             style="fill:none;stroke:#f78d2c;stroke-width:2;stroke-linecap:butt;stroke-linejoin:miter;stroke-miterlimit:10;stroke-dasharray:none;stroke-opacity:1"
             d="M 207.896,0 H 9.83 C 4.401,0 0,4.4 0,9.828 V 134.31 H 217.725 V 9.828 C 217.725,4.4 213.325,0 207.896,0 Z" />
        </g>
        <g
           transform="matrix(1,0,0,-1,205.1916,209.2257)"
           id="g428">
          <path
             inkscape:connector-curvature="0"
             id="path430"
             style="fill:none;stroke:#bde093;stroke-width:2;stroke-linecap:butt;stroke-linejoin:miter;stroke-miterlimit:10;stroke-dasharray:none;stroke-opacity:1"
             d="M 233.979,14.139 H 12.02 C 5.381,14.139 0,8.757 0,2.118 V 0 h 246 v 2.118 c 0,6.639 -5.382,12.021 -12.021,12.021 z" />
        </g>
        <g
           transform="matrix(1,0,0,-1,225,334.682)"
           id="g432">
          <path
             inkscape:connector-curvature="0"
             id="path434"
             style="fill:none;stroke:#9acaeb;stroke-width:2;stroke-linecap:butt;stroke-linejoin:miter;stroke-miterlimit:10;stroke-dasharray:none;stroke-opacity:1"
             d="M 0,0.5 H 206.414" />
        </g>
        <g
           transform="matrix(1,0,0,-1,225,217.1235)"
           id="g436">
          <path
             inkscape:connector-curvature="0"
             id="path438"
             style="fill:none;stroke:#9acaeb;stroke-width:2;stroke-linecap:butt;stroke-linejoin:miter;stroke-miterlimit:10;stroke-dasharray:none;stroke-opacity:1"
             d="M 0,0.5 H 206.414" />
        </g>
        <g
           transform="matrix(1,0,0,-1,304.7693,295.4586)"
           id="g440">
          <path
             inkscape:connector-curvature="0"
             id="path442"
             style="fill:none;stroke:#ffffff;stroke-width:2;stroke-linecap:butt;stroke-linejoin:miter;stroke-miterlimit:10;stroke-dasharray:none;stroke-opacity:1"
             d="M 0,20.578 21.557,42.135 52.913,0" />
        </g>
      </g>
    </g>
    <g
       id="g444">
      <g
         clip-path="url(#clipPath450)"
         id="g446">
        <g
           clip-path="url(#clipPath456)"
           id="g452">
          <path
             inkscape:connector-curvature="0"
             id="path458"
             style="fill:#1077b4;fill-opacity:1;fill-rule:nonzero;stroke:none"
             d="m 411.4431,248.6042 h 84.03 v 141.5 h -84.03 z" />
        </g>
      </g>
    </g>
    <g
       id="g460">
      <g
         clip-path="url(#clipPath466)"
         id="g462">
        <g
           transform="matrix(1,0,0,-1,416.4431,385.1042)"
           id="g468">
          <path
             inkscape:connector-curvature="0"
             id="path470"
             style="fill:none;stroke:#bde093;stroke-width:2;stroke-linecap:butt;stroke-linejoin:miter;stroke-miterlimit:10;stroke-dasharray:none;stroke-opacity:1"
             d="M 63.458,131.5 H 10.572 C 4.733,131.5 0,126.767 0,120.928 V 10.572 C 0,4.733 4.733,0 10.572,0 H 63.458 C 69.297,0 74.03,4.733 74.03,10.572 v 110.356 c 0,5.839 -4.733,10.572 -10.572,10.572 z" />
        </g>
        <g
           transform="matrix(1,0,0,-1,421,367)"
           id="g472">
          <path
             inkscape:connector-curvature="0"
             id="path474"
             style="fill:none;stroke:#9acaeb;stroke-width:2;stroke-linecap:butt;stroke-linejoin:miter;stroke-miterlimit:10;stroke-dasharray:none;stroke-opacity:1"
             d="M 63.97146,0.5 H 0" />
        </g>
        <g
           transform="matrix(1,0,0,-1,421,274.665)"
           id="g476">
          <path
             inkscape:connector-curvature="0"
             id="path478"
             style="fill:none;stroke:#9acaeb;stroke-width:2;stroke-linecap:butt;stroke-linejoin:miter;stroke-miterlimit:10;stroke-dasharray:none;stroke-opacity:1"
             d="M 63.97146,0.5 H 0" />
        </g>
        <g
           transform="matrix(1,0,0,-1,448.5876,268.2672)"
           id="g480">
          <path
             inkscape:connector-curvature="0"
             id="path482"
             style="fill:none;stroke:#febf85;stroke-width:2;stroke-linecap:butt;stroke-linejoin:miter;stroke-miterlimit:10;stroke-dasharray:none;stroke-opacity:1"
             d="M 0,4.87 C 0,2.181 2.181,0 4.871,0 c 2.69,0 4.87,2.181 4.87,4.87 0,2.69 -2.18,4.871 -4.87,4.871 C 2.181,9.741 0,7.56 0,4.87 Z" />
        </g>
        <g
           transform="matrix(1,0,0,-1,447.1267,375.863)"
           id="g484">
          <path
             inkscape:connector-curvature="0"
             id="path486"
             style="fill:none;stroke:#febf85;stroke-width:2;stroke-linecap:butt;stroke-linejoin:miter;stroke-miterlimit:10;stroke-dasharray:none;stroke-opacity:1"
             d="M 0,0.5 H 12.663" />
        </g>
        <g
           transform="matrix(1,0,0,-1,434.2019,341.142)"
           id="g488">
          <path
             inkscape:connector-curvature="0"
             id="path490"
             style="fill:none;stroke:#ffffff;stroke-width:2;stroke-linecap:butt;stroke-linejoin:miter;stroke-miterlimit:10;stroke-dasharray:none;stroke-opacity:1"
             d="M 0,16.196 16.968,33.164 41.648,0" />
        </g>
      </g>
    </g>
  </g>
</svg>
