<?xml version="1.0" encoding="UTF-8" standalone="no"?>
<svg
   xmlns:dc="http://purl.org/dc/elements/1.1/"
   xmlns:cc="http://creativecommons.org/ns#"
   xmlns:rdf="http://www.w3.org/1999/02/22-rdf-syntax-ns#"
   xmlns:svg="http://www.w3.org/2000/svg"
   xmlns="http://www.w3.org/2000/svg"
   xmlns:sodipodi="http://sodipodi.sourceforge.net/DTD/sodipodi-0.dtd"
   xmlns:inkscape="http://www.inkscape.org/namespaces/inkscape"
   id="svg1643"
   version="1.1"
   viewBox="0 0 150 150"
   height="150mm"
   width="150mm"
   sodipodi:docname="6.svg"
   inkscape:version="0.92.3 (2405546, 2018-03-11)">
  <sodipodi:namedview
     pagecolor="#ffffff"
     bordercolor="#666666"
     borderopacity="1"
     objecttolerance="10"
     gridtolerance="10"
     guidetolerance="10"
     inkscape:pageopacity="0"
     inkscape:pageshadow="2"
     inkscape:window-width="1440"
     inkscape:window-height="739"
     id="namedview732"
     showgrid="false"
     inkscape:zoom="0.47095833"
     inkscape:cx="-208.08635"
     inkscape:cy="188.97638"
     inkscape:window-x="0"
     inkscape:window-y="40"
     inkscape:window-maximized="1"
     inkscape:current-layer="svg1643" />
  <defs
     id="defs1637">
    <clipPath
       id="clipPath310"
       clipPathUnits="userSpaceOnUse">
      <path
         style="clip-rule:evenodd"
         id="path308"
         d="m 418.0783,469.804 3.688,-2.523 3.693,2.523 3.691,-2.523 3.694,2.523 3.692,-2.523 3.694,2.523 3.695,-2.523 3.696,2.523 3.691,-2.523 3.695,2.523 3.696,-2.523 3.697,2.523 3.702,-2.523 3.703,2.523 v -59.296 h -51.727 z"
         inkscape:connector-curvature="0" />
    </clipPath>
    <clipPath
       id="clipPath316"
       clipPathUnits="userSpaceOnUse">
      <path
         id="path314"
         d="M 0,0 H 1200 V 660 H 0 Z"
         inkscape:connector-curvature="0" />
    </clipPath>
    <clipPath
       id="clipPath326"
       clipPathUnits="userSpaceOnUse">
      <path
         id="path324"
         d="M 0,0 H 1200 V 660 H 0 Z"
         inkscape:connector-curvature="0" />
    </clipPath>
    <clipPath
       id="clipPath262"
       clipPathUnits="userSpaceOnUse">
      <path
         id="path260"
         d="M 0,0 H 1200 V 660 H 0 Z"
         inkscape:connector-curvature="0" />
    </clipPath>
    <clipPath
       id="clipPath278"
       clipPathUnits="userSpaceOnUse">
      <path
         style="clip-rule:evenodd"
         id="path276"
         d="m 204.363,447.1042 2.567,-1.756 2.57,1.756 2.568,-1.756 2.57,1.756 2.57,-1.756 2.57,1.756 2.571,-1.756 2.572,1.756 2.568,-1.756 2.571,1.756 2.573,-1.756 2.572,1.756 2.576,-1.756 2.576,1.756 v -41.262 h -35.994 z"
         inkscape:connector-curvature="0" />
    </clipPath>
    <clipPath
       id="clipPath284"
       clipPathUnits="userSpaceOnUse">
      <path
         id="path282"
         d="M 0,0 H 1200 V 660 H 0 Z"
         inkscape:connector-curvature="0" />
    </clipPath>
    <clipPath
       id="clipPath294"
       clipPathUnits="userSpaceOnUse">
      <path
         id="path292"
         d="M 0,0 H 1200 V 660 H 0 Z"
         inkscape:connector-curvature="0" />
    </clipPath>
    <clipPath
       id="clipPath406"
       clipPathUnits="userSpaceOnUse">
      <path
         style="clip-rule:evenodd"
         id="path404"
         d="m 427.2243,343.5349 h -198.066 c -5.429,0 -9.83,-4.4 -9.83,-9.828 v -124.482 h 217.725 v 124.482 c 0,5.428 -4.4,9.828 -9.829,9.828"
         inkscape:connector-curvature="0" />
    </clipPath>
    <clipPath
       id="clipPath412"
       clipPathUnits="userSpaceOnUse">
      <path
         id="path410"
         d="M 0,0 H 1200 V 660 H 0 Z"
         inkscape:connector-curvature="0" />
    </clipPath>
    <clipPath
       id="clipPath422"
       clipPathUnits="userSpaceOnUse">
      <path
         id="path420"
         d="M 0,0 H 1200 V 660 H 0 Z"
         inkscape:connector-curvature="0" />
    </clipPath>
    <clipPath
       id="clipPath450"
       clipPathUnits="userSpaceOnUse">
      <path
         style="clip-rule:evenodd"
         id="path448"
         d="m 479.9011,253.6042 h -52.886 c -5.839,0 -10.572,4.733 -10.572,10.572 v 110.356 c 0,5.839 4.733,10.572 10.572,10.572 h 52.886 c 5.839,0 10.572,-4.733 10.572,-10.572 v -110.356 c 0,-5.839 -4.733,-10.572 -10.572,-10.572"
         inkscape:connector-curvature="0" />
    </clipPath>
    <clipPath
       id="clipPath456"
       clipPathUnits="userSpaceOnUse">
      <path
         id="path454"
         d="M 0,0 H 1200 V 660 H 0 Z"
         inkscape:connector-curvature="0" />
    </clipPath>
    <clipPath
       id="clipPath466"
       clipPathUnits="userSpaceOnUse">
      <path
         id="path464"
         d="M 0,0 H 1200 V 660 H 0 Z"
         inkscape:connector-curvature="0" />
    </clipPath>
    <clipPath
       id="clipPath280"
       clipPathUnits="userSpaceOnUse">
      <path
         id="path278"
         d="M 0,0 H 1200 V 660 H 0 Z"
         inkscape:connector-curvature="0" />
    </clipPath>
    <clipPath
       id="clipPath292"
       clipPathUnits="userSpaceOnUse">
      <path
         style="clip-rule:evenodd"
         id="path290"
         d="m 283.1752,323.6119 v -21.5038 c 0,-6.687 -20.8582,-12.1076 -46.5882,-12.1076 -25.7288,0 -46.5869,5.4206 -46.5869,12.1076 v 21.5038"
         inkscape:connector-curvature="0" />
    </clipPath>
    <clipPath
       id="clipPath298"
       clipPathUnits="userSpaceOnUse">
      <path
         id="path296"
         d="M 0,0 H 1200 V 660 H 0 Z"
         inkscape:connector-curvature="0" />
    </clipPath>
    <clipPath
       id="clipPath308"
       clipPathUnits="userSpaceOnUse">
      <path
         id="path306"
         d="M 0,0 H 1200 V 660 H 0 Z"
         inkscape:connector-curvature="0" />
    </clipPath>
    <clipPath
       id="clipPath324"
       clipPathUnits="userSpaceOnUse">
      <path
         style="clip-rule:evenodd"
         id="path322"
         d="m 283.1751,355.985 v -21.3246 c 0,-6.6298 -20.8581,-12.0049 -46.5881,-12.0049 -25.7288,0 -46.5869,5.3751 -46.5869,12.0049 v 21.3246"
         inkscape:connector-curvature="0" />
    </clipPath>
    <clipPath
       id="clipPath330"
       clipPathUnits="userSpaceOnUse">
      <path
         id="path328"
         d="M 0,0 H 1200 V 660 H 0 Z"
         inkscape:connector-curvature="0" />
    </clipPath>
    <clipPath
       id="clipPath340"
       clipPathUnits="userSpaceOnUse">
      <path
         style="clip-rule:evenodd"
         id="path338"
         d="m 283.1751,345.985 v -21.3246 c 0,-6.6298 -20.8581,-12.0049 -46.5881,-12.0049 -25.7288,0 -46.5869,5.3751 -46.5869,12.0049 v 21.3246"
         inkscape:connector-curvature="0" />
    </clipPath>
    <clipPath
       id="clipPath346"
       clipPathUnits="userSpaceOnUse">
      <path
         id="path344"
         d="M 0,0 H 1200 V 660 H 0 Z"
         inkscape:connector-curvature="0" />
    </clipPath>
    <clipPath
       id="clipPath356"
       clipPathUnits="userSpaceOnUse">
      <path
         id="path354"
         d="M 0,0 H 1200 V 660 H 0 Z"
         inkscape:connector-curvature="0" />
    </clipPath>
    <clipPath
       id="clipPath368"
       clipPathUnits="userSpaceOnUse">
      <path
         style="clip-rule:evenodd"
         id="path366"
         d="m 283.1752,367.2212 v -21.3741 c 0,-6.6452 -20.8582,-12.0328 -46.5882,-12.0328 -25.7288,0 -46.5869,5.3876 -46.5869,12.0328 v 21.3741"
         inkscape:connector-curvature="0" />
    </clipPath>
    <clipPath
       id="clipPath374"
       clipPathUnits="userSpaceOnUse">
      <path
         id="path372"
         d="M 0,0 H 1200 V 660 H 0 Z"
         inkscape:connector-curvature="0" />
    </clipPath>
    <clipPath
       id="clipPath384"
       clipPathUnits="userSpaceOnUse">
      <path
         id="path382"
         d="M 0,0 H 1200 V 660 H 0 Z"
         inkscape:connector-curvature="0" />
    </clipPath>
    <clipPath
       id="clipPath396"
       clipPathUnits="userSpaceOnUse">
      <path
         style="clip-rule:evenodd"
         id="path394"
         d="M 283,366.5007 C 283,359.0442 262.1811,353 236.4994,353 210.8189,353 190,359.0442 190,366.5007 190,373.9558 210.8189,380 236.4994,380 262.1811,380 283,373.9558 283,366.5007 Z"
         inkscape:connector-curvature="0" />
    </clipPath>
    <clipPath
       id="clipPath402"
       clipPathUnits="userSpaceOnUse">
      <path
         id="path400"
         d="M 0,0 H 1200 V 660 H 0 Z"
         inkscape:connector-curvature="0" />
    </clipPath>
    <clipPath
       id="clipPath412-6"
       clipPathUnits="userSpaceOnUse">
      <path
         id="path410-7"
         d="M 0,0 H 1200 V 660 H 0 Z"
         inkscape:connector-curvature="0" />
    </clipPath>
    <clipPath
       id="clipPath424"
       clipPathUnits="userSpaceOnUse">
      <path
         style="clip-rule:evenodd"
         id="path422"
         d="m 524.3667,248.4658 h -142.449 c -3.268,0 -5.918,2.649 -5.918,5.917 v 18.7 c 0,3.268 2.65,5.917 5.918,5.917 h 142.449 c 3.268,0 5.917,-2.649 5.917,-5.917 v -18.7 c 0,-3.268 -2.649,-5.917 -5.917,-5.917"
         inkscape:connector-curvature="0" />
    </clipPath>
    <clipPath
       id="clipPath430"
       clipPathUnits="userSpaceOnUse">
      <path
         id="path428"
         d="M 0,0 H 1200 V 660 H 0 Z"
         inkscape:connector-curvature="0" />
    </clipPath>
    <clipPath
       id="clipPath440"
       clipPathUnits="userSpaceOnUse">
      <path
         id="path438"
         d="M 0,0 H 1200 V 660 H 0 Z"
         inkscape:connector-curvature="0" />
    </clipPath>
    <clipPath
       id="clipPath452"
       clipPathUnits="userSpaceOnUse">
      <path
         style="clip-rule:evenodd"
         id="path450"
         d="m 444.9531,259.2568 h 74.751 c 2.472,0 4.477,2.004 4.477,4.477 0,2.471 -2.005,4.475 -4.477,4.475 h -74.751 c -2.472,0 -4.476,-2.004 -4.476,-4.475 0,-2.473 2.004,-4.477 4.476,-4.477"
         inkscape:connector-curvature="0" />
    </clipPath>
    <clipPath
       id="clipPath458"
       clipPathUnits="userSpaceOnUse">
      <path
         id="path456"
         d="M 0,0 H 1200 V 660 H 0 Z"
         inkscape:connector-curvature="0" />
    </clipPath>
    <clipPath
       id="clipPath468"
       clipPathUnits="userSpaceOnUse">
      <path
         id="path466"
         d="M 0,0 H 1200 V 660 H 0 Z"
         inkscape:connector-curvature="0" />
    </clipPath>
    <clipPath
       id="clipPath480"
       clipPathUnits="userSpaceOnUse">
      <path
         style="clip-rule:evenodd"
         id="path478"
         d="m 383.8027,263.7334 c 0,2.497 2.025,4.521 4.522,4.521 2.498,0 4.522,-2.024 4.522,-4.521 0,-2.498 -2.024,-4.522 -4.522,-4.522 -2.497,0 -4.522,2.024 -4.522,4.522"
         inkscape:connector-curvature="0" />
    </clipPath>
    <clipPath
       id="clipPath486"
       clipPathUnits="userSpaceOnUse">
      <path
         id="path484"
         d="M 0,0 H 1200 V 660 H 0 Z"
         inkscape:connector-curvature="0" />
    </clipPath>
    <clipPath
       id="clipPath496"
       clipPathUnits="userSpaceOnUse">
      <path
         id="path494"
         d="M 0,0 H 1200 V 660 H 0 Z"
         inkscape:connector-curvature="0" />
    </clipPath>
    <clipPath
       id="clipPath508"
       clipPathUnits="userSpaceOnUse">
      <path
         style="clip-rule:evenodd"
         id="path506"
         d="m 397.3691,263.7334 c 0,2.497 2.025,4.521 4.522,4.521 2.498,0 4.522,-2.024 4.522,-4.521 0,-2.498 -2.024,-4.522 -4.522,-4.522 -2.497,0 -4.522,2.024 -4.522,4.522"
         inkscape:connector-curvature="0" />
    </clipPath>
    <clipPath
       id="clipPath514"
       clipPathUnits="userSpaceOnUse">
      <path
         id="path512"
         d="M 0,0 H 1200 V 660 H 0 Z"
         inkscape:connector-curvature="0" />
    </clipPath>
    <clipPath
       id="clipPath524"
       clipPathUnits="userSpaceOnUse">
      <path
         id="path522"
         d="M 0,0 H 1200 V 660 H 0 Z"
         inkscape:connector-curvature="0" />
    </clipPath>
    <clipPath
       id="clipPath536"
       clipPathUnits="userSpaceOnUse">
      <path
         style="clip-rule:evenodd"
         id="path534"
         d="m 410.4033,263.7334 c 0,2.497 2.025,4.521 4.522,4.521 2.498,0 4.522,-2.024 4.522,-4.521 0,-2.498 -2.024,-4.522 -4.522,-4.522 -2.497,0 -4.522,2.024 -4.522,4.522"
         inkscape:connector-curvature="0" />
    </clipPath>
    <clipPath
       id="clipPath542"
       clipPathUnits="userSpaceOnUse">
      <path
         id="path540"
         d="M 0,0 H 1200 V 660 H 0 Z"
         inkscape:connector-curvature="0" />
    </clipPath>
    <clipPath
       id="clipPath552"
       clipPathUnits="userSpaceOnUse">
      <path
         id="path550"
         d="M 0,0 H 1200 V 660 H 0 Z"
         inkscape:connector-curvature="0" />
    </clipPath>
    <clipPath
       id="clipPath564"
       clipPathUnits="userSpaceOnUse">
      <path
         style="clip-rule:evenodd"
         id="path562"
         d="m 457.9283,410.491 v 45.57 l -39.464,22.784 -39.464,-22.784 v -45.57 l 39.464,-22.784 z"
         inkscape:connector-curvature="0" />
    </clipPath>
    <clipPath
       id="clipPath570"
       clipPathUnits="userSpaceOnUse">
      <path
         id="path568"
         d="M 0,0 H 1200 V 660 H 0 Z"
         inkscape:connector-curvature="0" />
    </clipPath>
    <clipPath
       id="clipPath580"
       clipPathUnits="userSpaceOnUse">
      <path
         id="path578"
         d="M 0,0 H 1200 V 660 H 0 Z"
         inkscape:connector-curvature="0" />
    </clipPath>
    <clipPath
       id="clipPath600"
       clipPathUnits="userSpaceOnUse">
      <path
         style="clip-rule:evenodd"
         id="path598"
         d="m 265.9999,247.0001 v -87.814 h 64.397 v 73.117 l -14.575,14.697 z"
         inkscape:connector-curvature="0" />
    </clipPath>
    <clipPath
       id="clipPath606"
       clipPathUnits="userSpaceOnUse">
      <path
         id="path604"
         d="M 0,0 H 1200 V 660 H 0 Z"
         inkscape:connector-curvature="0" />
    </clipPath>
    <clipPath
       id="clipPath616"
       clipPathUnits="userSpaceOnUse">
      <path
         id="path614"
         d="M 0,0 H 1200 V 660 H 0 Z"
         inkscape:connector-curvature="0" />
    </clipPath>
    <clipPath
       id="clipPath268"
       clipPathUnits="userSpaceOnUse">
      <path
         id="path266"
         d="M 0,0 H 1200 V 660 H 0 Z"
         inkscape:connector-curvature="0" />
    </clipPath>
    <clipPath
       id="clipPath304"
       clipPathUnits="userSpaceOnUse">
      <path
         style="clip-rule:evenodd"
         id="path302"
         d="m 480.4273,431.0005 h -118.932 c -10.7662,0 -19.4955,-8.6363 -19.4955,-19.289 V 221.225 c 0,-10.6527 8.7293,-19.289 19.4955,-19.289 h 118.932 c 10.7663,0 19.4956,8.6363 19.4956,19.289 v 190.4865 c 0,10.6527 -8.7293,19.289 -19.4956,19.289 z"
         inkscape:connector-curvature="0" />
    </clipPath>
    <clipPath
       id="clipPath310-3"
       clipPathUnits="userSpaceOnUse">
      <path
         id="path308-5"
         d="M 0,0 H 1200 V 660 H 0 Z"
         inkscape:connector-curvature="0" />
    </clipPath>
    <clipPath
       id="clipPath320"
       clipPathUnits="userSpaceOnUse">
      <path
         id="path318"
         d="M 0,0 H 1200 V 660 H 0 Z"
         inkscape:connector-curvature="0" />
    </clipPath>
    <clipPath
       id="clipPath274"
       clipPathUnits="userSpaceOnUse">
      <path
         id="path272"
         d="M 0,0 H 1200 V 660 H 0 Z"
         inkscape:connector-curvature="0" />
    </clipPath>
    <clipPath
       id="clipPath350"
       clipPathUnits="userSpaceOnUse">
      <path
         style="clip-rule:evenodd"
         id="path348"
         d="m 205,356.8505 h 7.3337 v -7.127 H 205 Z"
         inkscape:connector-curvature="0" />
    </clipPath>
    <clipPath
       id="clipPath356-9"
       clipPathUnits="userSpaceOnUse">
      <path
         id="path354-3"
         d="M 0,0 H 1200 V 660 H 0 Z"
         inkscape:connector-curvature="0" />
    </clipPath>
    <clipPath
       id="clipPath362"
       clipPathUnits="userSpaceOnUse">
      <path
         id="path360"
         d="m 205,349 h 8 v 8 h -8 z"
         inkscape:connector-curvature="0" />
    </clipPath>
    <clipPath
       id="clipPath366"
       clipPathUnits="userSpaceOnUse">
      <path
         style="clip-rule:evenodd"
         id="path364"
         d="m 212.3337,353.6205 -4.597,-1.367 -1.365,4.597 -1.372,-2.531 1.366,-4.596 4.597,1.366 z"
         inkscape:connector-curvature="0" />
    </clipPath>
    <clipPath
       id="clipPath370"
       clipPathUnits="userSpaceOnUse">
      <path
         id="path368"
         d="m 205,349 h 8 v 8 h -8 z"
         inkscape:connector-curvature="0" />
    </clipPath>
    <clipPath
       id="clipPath392"
       clipPathUnits="userSpaceOnUse">
      <path
         id="path390"
         d="M 0,0 H 1200 V 660 H 0 Z"
         inkscape:connector-curvature="0" />
    </clipPath>
    <clipPath
       id="clipPath404"
       clipPathUnits="userSpaceOnUse">
      <path
         style="clip-rule:evenodd"
         id="path402"
         d="m 317.0454,163.3588 h 6.356 v -6.8538 h -6.356 z"
         inkscape:connector-curvature="0" />
    </clipPath>
    <clipPath
       id="clipPath410"
       clipPathUnits="userSpaceOnUse">
      <path
         id="path408"
         d="M 0,0 H 1200 V 660 H 0 Z"
         inkscape:connector-curvature="0" />
    </clipPath>
    <clipPath
       id="clipPath416"
       clipPathUnits="userSpaceOnUse">
      <path
         id="path414"
         d="m 317,156 h 7 v 8 h -7 z"
         inkscape:connector-curvature="0" />
    </clipPath>
    <clipPath
       id="clipPath420"
       clipPathUnits="userSpaceOnUse">
      <path
         style="clip-rule:evenodd"
         id="path418"
         d="m 317.2224,163.3588 3.303,-3.478 -3.48,-3.3 2.878,-0.076 3.478,3.301 -3.301,3.479 z"
         inkscape:connector-curvature="0" />
    </clipPath>
    <clipPath
       id="clipPath424-6"
       clipPathUnits="userSpaceOnUse">
      <path
         id="path422-0"
         d="m 317,156 h 7 v 8 h -7 z"
         inkscape:connector-curvature="0" />
    </clipPath>
    <clipPath
       id="clipPath446"
       clipPathUnits="userSpaceOnUse">
      <path
         id="path444"
         d="M 0,0 H 1200 V 660 H 0 Z"
         inkscape:connector-curvature="0" />
    </clipPath>
    <clipPath
       id="clipPath458-6"
       clipPathUnits="userSpaceOnUse">
      <path
         style="clip-rule:evenodd"
         id="path456-2"
         d="m 440.4978,341.5502 1.667,4.498 4.497,-1.67 -1.201,2.616 -4.496,1.668 -1.668,-4.495 z"
         inkscape:connector-curvature="0" />
    </clipPath>
    <clipPath
       id="clipPath464"
       clipPathUnits="userSpaceOnUse">
      <path
         id="path462"
         d="M 0,0 H 1200 V 660 H 0 Z"
         inkscape:connector-curvature="0" />
    </clipPath>
  </defs>
  <metadata
     id="metadata1640">
    <rdf:RDF>
      <cc:Work
         rdf:about="">
        <dc:format>image/svg+xml</dc:format>
        <dc:type
           rdf:resource="http://purl.org/dc/dcmitype/StillImage" />
        <dc:title />
      </cc:Work>
    </rdf:RDF>
  </metadata>
  <g
     transform="translate(0,-172)"
     id="layer1"
     style="opacity:0.98999999">
    <g
       id="g1346"
       transform="matrix(0.35277777,0,0,-0.35277777,-39.142764,348.42361)">
      <g
         id="g268">
        <g
           id="g270"
           clip-path="url(#clipPath274)">
          <g
             id="g276"
             transform="matrix(1,0,0,-1,158,322)">
            <path
               d="M 14.48,72 H 10.722 C 4.8,72 0,67.2 0,61.278 V 10.722 C 0,4.8 4.8,0 10.722,0 h 99.556 C 116.2,0 121,4.8 121,10.722 V 61.278 C 121,67.2 116.2,72 110.278,72 H 107"
               style="fill:none;stroke:#9acaeb;stroke-width:2;stroke-linecap:butt;stroke-linejoin:miter;stroke-miterlimit:10;stroke-dasharray:none;stroke-opacity:1"
               id="path278-6"
               inkscape:connector-curvature="0" />
          </g>
          <g
             id="g280"
             transform="matrix(1,0,0,-1,179,264)">
            <path
               d="M 6.5,29 C 2.91,29 0,26.09 0,22.5 V 6.5 C 0,2.91 2.91,0 6.5,0 10.09,0 13,2.91 13,6.5 v 16 C 13,26.09 10.09,29 6.5,29 Z"
               style="fill:none;stroke:#9acaeb;stroke-width:2;stroke-linecap:butt;stroke-linejoin:miter;stroke-miterlimit:10;stroke-dasharray:none;stroke-opacity:1"
               id="path282-1"
               inkscape:connector-curvature="0" />
          </g>
          <g
             id="g284"
             transform="matrix(1,0,0,-1,223,277)">
            <path
               d="M 6.5,42 C 2.91,42 0,39.09 0,35.5 V 6.5 C 0,2.91 2.91,0 6.5,0 10.09,0 13,2.91 13,6.5 v 29 C 13,39.09 10.09,42 6.5,42 Z"
               style="fill:none;stroke:#9acaeb;stroke-width:2;stroke-linecap:butt;stroke-linejoin:miter;stroke-miterlimit:10;stroke-dasharray:none;stroke-opacity:1"
               id="path286"
               inkscape:connector-curvature="0" />
          </g>
          <g
             id="g288"
             transform="matrix(1,0,0,-1,245,304)">
            <path
               d="M 6.5,69 C 2.91,69 0,66.09 0,62.5 V 6.5 C 0,2.91 2.91,0 6.5,0 10.09,0 13,2.91 13,6.5 v 56 C 13,66.09 10.09,69 6.5,69 Z"
               style="fill:none;stroke:#9acaeb;stroke-width:2;stroke-linecap:butt;stroke-linejoin:miter;stroke-miterlimit:10;stroke-dasharray:none;stroke-opacity:1"
               id="path290-8"
               inkscape:connector-curvature="0" />
          </g>
          <g
             id="g292"
             transform="matrix(1,0,0,-1,201,286)">
            <path
               d="M 6.5,51 C 2.91,51 0,48.09 0,44.5 V 6.5 C 0,2.91 2.91,0 6.5,0 10.09,0 13,2.91 13,6.5 v 38 C 13,48.09 10.09,51 6.5,51 Z"
               style="fill:none;stroke:#9acaeb;stroke-width:2;stroke-linecap:butt;stroke-linejoin:miter;stroke-miterlimit:10;stroke-dasharray:none;stroke-opacity:1"
               id="path294"
               inkscape:connector-curvature="0" />
          </g>
          <g
             id="g296"
             transform="matrix(1,0,0,-1,355.1086,217.0004)">
            <path
               d="M 0,53.434 V 11.623 C 0,5.205 5.204,0 11.623,0 H 122.377 C 128.796,0 134,5.205 134,11.623 V 65.377 C 134,71.796 128.796,77 122.377,77 H 71.828"
               style="fill:none;stroke:#bde093;stroke-width:2;stroke-linecap:butt;stroke-linejoin:miter;stroke-miterlimit:10;stroke-dasharray:none;stroke-opacity:1"
               id="path298"
               inkscape:connector-curvature="0" />
          </g>
          <g
             id="g300"
             transform="matrix(1,0,0,-1,383.1086,184)">
            <path
               d="M 44,0 H 35.174 C 32.67,0 30.436,1.571 29.59,3.929 L 16.675,40.905 C 15.662,43.382 13.252,45 10.576,45 H 0"
               style="fill:none;stroke:#bde093;stroke-width:2;stroke-linecap:butt;stroke-linejoin:miter;stroke-miterlimit:10;stroke-dasharray:none;stroke-opacity:1"
               id="path302-7"
               inkscape:connector-curvature="0" />
          </g>
          <g
             id="g304"
             transform="matrix(1,0,0,-1,352.1083,153)">
            <path
               d="M 27.243,28 H 4.758 C 2.13,28 0,25.87 0,23.243 V 4.757 C 0,2.13 2.13,0 4.758,0 H 27.243 C 29.87,0 32,2.13 32,4.757 V 23.243 C 32,25.87 29.87,28 27.243,28 Z"
               style="fill:none;stroke:#bde093;stroke-width:2;stroke-linecap:butt;stroke-linejoin:miter;stroke-miterlimit:10;stroke-dasharray:none;stroke-opacity:1"
               id="path306-9"
               inkscape:connector-curvature="0" />
          </g>
          <g
             id="g308"
             transform="matrix(1,0,0,-1,427.1085,198)">
            <path
               d="M 25.88,27 H 5.12 C 2.293,27 0,24.708 0,21.88 V 5.12 C 0,2.292 2.293,0 5.12,0 H 25.88 C 28.708,0 31,2.292 31,5.12 V 21.88 C 31,24.708 28.708,27 25.88,27 Z"
               style="fill:none;stroke:#bde093;stroke-width:2;stroke-linecap:butt;stroke-linejoin:miter;stroke-miterlimit:10;stroke-dasharray:none;stroke-opacity:1"
               id="path310"
               inkscape:connector-curvature="0" />
          </g>
          <g
             id="g312"
             transform="matrix(1,0,0,-1,359.1082,147)">
            <path
               d="M 16.812,16 H 1.189 C 0.533,16 0,15.468 0,14.812 V 1.188 C 0,0.532 0.533,0 1.189,0 H 16.812 C 17.468,0 18,0.532 18,1.188 V 14.812 C 18,15.468 17.468,16 16.812,16 Z"
               style="fill:none;stroke:#bde093;stroke-width:2;stroke-linecap:butt;stroke-linejoin:miter;stroke-miterlimit:10;stroke-dasharray:none;stroke-opacity:1"
               id="path314-2"
               inkscape:connector-curvature="0" />
          </g>
          <g
             id="g316"
             transform="matrix(1,0,0,-1,329.9995,450)">
            <path
               d="M 13.103,73 H 9.31 C 4.168,73 0,68.832 0,63.691 V 9.309 C 0,4.168 4.168,0 9.31,0 h 95.381 C 109.832,0 114,4.168 114,9.309 V 63.691 C 114,68.832 109.832,73 104.691,73 h -4.285"
               style="fill:none;stroke:#febf85;stroke-width:2;stroke-linecap:butt;stroke-linejoin:miter;stroke-miterlimit:10;stroke-dasharray:none;stroke-opacity:1"
               id="path318-0"
               inkscape:connector-curvature="0" />
          </g>
          <g
             id="g320"
             transform="matrix(1,0,0,-1,341.4638,418.537)">
            <path
               d="m 1.03425,26.039 25.004,-25.004 c 1.379,-1.38 3.617,-1.38 4.996,0 l 25.004,25.004 c 1.379,1.38 1.379,3.616 0,4.996 l -25.004,25.004 c -1.379,1.38 -3.617,1.38 -4.996,0 L 1.03425,31.035 c -1.379,-1.38 -1.379,-3.616 0,-4.996 z"
               style="fill:none;stroke:#febf85;stroke-width:2;stroke-linecap:butt;stroke-linejoin:miter;stroke-miterlimit:10;stroke-dasharray:none;stroke-opacity:1"
               id="path322-2"
               inkscape:connector-curvature="0" />
          </g>
          <g
             id="g324"
             transform="matrix(1,0,0,-1,357.634,402.3662)">
            <path
               d="m 0.4485,11.28325 10.835,-10.834 c 0.598,-0.599 1.567,-0.599 2.165,0 l 10.835,10.834 c 0.598,0.599 0.598,1.567 0,2.166 l -10.835,10.834 c -0.598,0.599 -1.567,0.599 -2.165,0 l -10.835,-10.834 c -0.598,-0.599 -0.598,-1.567 0,-2.166 z"
               style="fill:none;stroke:#febf85;stroke-width:2;stroke-linecap:butt;stroke-linejoin:miter;stroke-miterlimit:10;stroke-dasharray:none;stroke-opacity:1"
               id="path326"
               inkscape:connector-curvature="0" />
          </g>
          <g
             id="g328"
             transform="matrix(1,0,0,-1,391.5127,417.987)">
            <path
               d="m 0.71625,9.7585 9.042,-9.043 c 0.955,-0.954 2.503,-0.954 3.458,0 l 9.042,9.043 c 0.955,0.954 0.955,2.503 0,3.457 l -9.042,9.043 c -0.955,0.954 -2.503,0.954 -3.458,0 l -9.042,-9.043 c -0.955,-0.954 -0.955,-2.503 0,-3.457 z"
               style="fill:none;stroke:#febf85;stroke-width:2;stroke-linecap:butt;stroke-linejoin:miter;stroke-miterlimit:10;stroke-dasharray:none;stroke-opacity:1"
               id="path330"
               inkscape:connector-curvature="0" />
          </g>
          <g
             id="g332"
             transform="matrix(1,0,0,-1,391.2721,385.227)">
            <path
               d="m 0.54675,10.40775 9.862,-9.861 c 0.729,-0.729 1.909,-0.729 2.638,0 l 9.862,9.861 c 0.729,0.729 0.729,1.91 0,2.639 l -9.862,9.861 c -0.729,0.729 -1.909,0.729 -2.638,0 l -9.862,-9.861 c -0.729,-0.729 -0.729,-1.91 0,-2.639 z"
               style="fill:none;stroke:#febf85;stroke-width:2;stroke-linecap:butt;stroke-linejoin:miter;stroke-miterlimit:10;stroke-dasharray:none;stroke-opacity:1"
               id="path334"
               inkscape:connector-curvature="0" />
          </g>
          <g
             id="g336"
             transform="matrix(1,0,0,-1,408.7721,401.727)">
            <path
               d="m 0.54675,10.40775 9.862,-9.861 c 0.729,-0.729 1.909,-0.729 2.638,0 l 9.862,9.861 c 0.729,0.729 0.729,1.91 0,2.639 l -9.862,9.861 c -0.729,0.729 -1.909,0.729 -2.638,0 l -9.862,-9.861 c -0.729,-0.729 -0.729,-1.91 0,-2.639 z"
               style="fill:none;stroke:#febf85;stroke-width:2;stroke-linecap:butt;stroke-linejoin:miter;stroke-miterlimit:10;stroke-dasharray:none;stroke-opacity:1"
               id="path338-3"
               inkscape:connector-curvature="0" />
          </g>
          <g
             id="g340"
             transform="matrix(1,0,0,-1,207.4128,420.0133)">
            <path
               d="M 0,68.259 C 18.708,32.729 53.264,6.842 94.266,0"
               style="fill:none;stroke:#ffffff;stroke-width:2;stroke-linecap:butt;stroke-linejoin:miter;stroke-miterlimit:10;stroke-dasharray:none;stroke-opacity:1"
               id="path342"
               inkscape:connector-curvature="0" />
          </g>
        </g>
      </g>
      <g
         id="g344">
        <g
           id="g346"
           clip-path="url(#clipPath350)">
          <g
             id="g352"
             clip-path="url(#clipPath356-9)">
            <g
               id="g358" />
            <g
               id="g384">
              <g
                 clip-path="url(#clipPath362)"
                 id="g382">
                <g
                   id="g372" />
                <g
                   id="g380">
                  <g
                     clip-path="url(#clipPath366)"
                     id="g378">
                    <g
                       clip-path="url(#clipPath370)"
                       id="g376">
                      <path
                         d="m 199.9997,344.7235 h 17.334 v 17.127 h -17.334 z"
                         style="fill:#ffffff;fill-opacity:1;fill-rule:nonzero;stroke:none"
                         id="path374"
                         inkscape:connector-curvature="0" />
                    </g>
                  </g>
                </g>
              </g>
            </g>
          </g>
        </g>
      </g>
      <g
         id="g386">
        <g
           id="g388"
           clip-path="url(#clipPath392)">
          <g
             id="g394"
             transform="matrix(1,0,0,-1,228.456,200.5486)">
            <path
               d="M 92.659,40.723 C 56.205,40.099 23.378,24.584 0,0"
               style="fill:none;stroke:#ffffff;stroke-width:2;stroke-linecap:butt;stroke-linejoin:miter;stroke-miterlimit:10;stroke-dasharray:none;stroke-opacity:1"
               id="path396"
               inkscape:connector-curvature="0" />
          </g>
        </g>
      </g>
      <g
         id="g398">
        <g
           id="g400"
           clip-path="url(#clipPath404)">
          <g
             id="g406"
             clip-path="url(#clipPath410)">
            <g
               id="g412" />
            <g
               id="g438">
              <g
                 clip-path="url(#clipPath416)"
                 id="g436">
                <g
                   id="g426" />
                <g
                   id="g434">
                  <g
                     clip-path="url(#clipPath420)"
                     id="g432">
                    <g
                       clip-path="url(#clipPath424-6)"
                       id="g430">
                      <path
                         d="m 312.0454,151.5048 h 16.356 v 16.854 h -16.356 z"
                         style="fill:#ffffff;fill-opacity:1;fill-rule:nonzero;stroke:none"
                         id="path428-7"
                         inkscape:connector-curvature="0" />
                    </g>
                  </g>
                </g>
              </g>
            </g>
          </g>
        </g>
      </g>
      <g
         id="g440">
        <g
           id="g442"
           clip-path="url(#clipPath446)">
          <g
             id="g448"
             transform="matrix(1,0,0,-1,441.7058,346.6039)">
            <path
               d="m 0.252,0 c 1.744,3.7 3.32,7.494 4.719,11.373 4.999,13.872 7.724,28.83 7.724,44.425 0,12.317 -1.7,24.238 -4.878,35.54 -2.025,7.2 -4.649,14.148 -7.817,20.789"
               style="fill:none;stroke:#ffffff;stroke-width:2;stroke-linecap:butt;stroke-linejoin:miter;stroke-miterlimit:10;stroke-dasharray:none;stroke-opacity:1"
               id="path450-5"
               inkscape:connector-curvature="0" />
          </g>
        </g>
      </g>
      <g
         id="g452">
        <g
           id="g454"
           clip-path="url(#clipPath458-6)">
          <g
             id="g460"
             clip-path="url(#clipPath464)">
            <path
               d="m 434.2968,336.5502 h 17.365 v 17.112 h -17.365 z"
               style="fill:#ffffff;fill-opacity:1;fill-rule:nonzero;stroke:none"
               id="path466-9"
               inkscape:connector-curvature="0" />
          </g>
        </g>
      </g>
    </g>
  </g>
</svg>
