<?xml version="1.0" encoding="UTF-8" standalone="no"?>
<svg
   xmlns:dc="http://purl.org/dc/elements/1.1/"
   xmlns:cc="http://creativecommons.org/ns#"
   xmlns:rdf="http://www.w3.org/1999/02/22-rdf-syntax-ns#"
   xmlns:svg="http://www.w3.org/2000/svg"
   xmlns="http://www.w3.org/2000/svg"
   xmlns:sodipodi="http://sodipodi.sourceforge.net/DTD/sodipodi-0.dtd"
   xmlns:inkscape="http://www.inkscape.org/namespaces/inkscape"
   id="svg1643"
   version="1.1"
   viewBox="0 0 150 150"
   height="150mm"
   width="150mm"
   sodipodi:docname="7.svg"
   inkscape:version="0.92.3 (2405546, 2018-03-11)">
  <sodipodi:namedview
     pagecolor="#ffffff"
     bordercolor="#666666"
     borderopacity="1"
     objecttolerance="10"
     gridtolerance="10"
     guidetolerance="10"
     inkscape:pageopacity="0"
     inkscape:pageshadow="2"
     inkscape:window-width="1440"
     inkscape:window-height="739"
     id="namedview1064"
     showgrid="false"
     inkscape:zoom="0.47095833"
     inkscape:cx="229.31965"
     inkscape:cy="142.26312"
     inkscape:window-x="0"
     inkscape:window-y="40"
     inkscape:window-maximized="1"
     inkscape:current-layer="svg1643" />
  <defs
     id="defs1637">
    <clipPath
       id="clipPath310"
       clipPathUnits="userSpaceOnUse">
      <path
         style="clip-rule:evenodd"
         id="path308"
         d="m 418.0783,469.804 3.688,-2.523 3.693,2.523 3.691,-2.523 3.694,2.523 3.692,-2.523 3.694,2.523 3.695,-2.523 3.696,2.523 3.691,-2.523 3.695,2.523 3.696,-2.523 3.697,2.523 3.702,-2.523 3.703,2.523 v -59.296 h -51.727 z"
         inkscape:connector-curvature="0" />
    </clipPath>
    <clipPath
       id="clipPath316"
       clipPathUnits="userSpaceOnUse">
      <path
         id="path314"
         d="M 0,0 H 1200 V 660 H 0 Z"
         inkscape:connector-curvature="0" />
    </clipPath>
    <clipPath
       id="clipPath326"
       clipPathUnits="userSpaceOnUse">
      <path
         id="path324"
         d="M 0,0 H 1200 V 660 H 0 Z"
         inkscape:connector-curvature="0" />
    </clipPath>
    <clipPath
       id="clipPath262"
       clipPathUnits="userSpaceOnUse">
      <path
         id="path260"
         d="M 0,0 H 1200 V 660 H 0 Z"
         inkscape:connector-curvature="0" />
    </clipPath>
    <clipPath
       id="clipPath278"
       clipPathUnits="userSpaceOnUse">
      <path
         style="clip-rule:evenodd"
         id="path276"
         d="m 204.363,447.1042 2.567,-1.756 2.57,1.756 2.568,-1.756 2.57,1.756 2.57,-1.756 2.57,1.756 2.571,-1.756 2.572,1.756 2.568,-1.756 2.571,1.756 2.573,-1.756 2.572,1.756 2.576,-1.756 2.576,1.756 v -41.262 h -35.994 z"
         inkscape:connector-curvature="0" />
    </clipPath>
    <clipPath
       id="clipPath284"
       clipPathUnits="userSpaceOnUse">
      <path
         id="path282"
         d="M 0,0 H 1200 V 660 H 0 Z"
         inkscape:connector-curvature="0" />
    </clipPath>
    <clipPath
       id="clipPath294"
       clipPathUnits="userSpaceOnUse">
      <path
         id="path292"
         d="M 0,0 H 1200 V 660 H 0 Z"
         inkscape:connector-curvature="0" />
    </clipPath>
    <clipPath
       id="clipPath406"
       clipPathUnits="userSpaceOnUse">
      <path
         style="clip-rule:evenodd"
         id="path404"
         d="m 427.2243,343.5349 h -198.066 c -5.429,0 -9.83,-4.4 -9.83,-9.828 v -124.482 h 217.725 v 124.482 c 0,5.428 -4.4,9.828 -9.829,9.828"
         inkscape:connector-curvature="0" />
    </clipPath>
    <clipPath
       id="clipPath412"
       clipPathUnits="userSpaceOnUse">
      <path
         id="path410"
         d="M 0,0 H 1200 V 660 H 0 Z"
         inkscape:connector-curvature="0" />
    </clipPath>
    <clipPath
       id="clipPath422"
       clipPathUnits="userSpaceOnUse">
      <path
         id="path420"
         d="M 0,0 H 1200 V 660 H 0 Z"
         inkscape:connector-curvature="0" />
    </clipPath>
    <clipPath
       id="clipPath450"
       clipPathUnits="userSpaceOnUse">
      <path
         style="clip-rule:evenodd"
         id="path448"
         d="m 479.9011,253.6042 h -52.886 c -5.839,0 -10.572,4.733 -10.572,10.572 v 110.356 c 0,5.839 4.733,10.572 10.572,10.572 h 52.886 c 5.839,0 10.572,-4.733 10.572,-10.572 v -110.356 c 0,-5.839 -4.733,-10.572 -10.572,-10.572"
         inkscape:connector-curvature="0" />
    </clipPath>
    <clipPath
       id="clipPath456"
       clipPathUnits="userSpaceOnUse">
      <path
         id="path454"
         d="M 0,0 H 1200 V 660 H 0 Z"
         inkscape:connector-curvature="0" />
    </clipPath>
    <clipPath
       id="clipPath466"
       clipPathUnits="userSpaceOnUse">
      <path
         id="path464"
         d="M 0,0 H 1200 V 660 H 0 Z"
         inkscape:connector-curvature="0" />
    </clipPath>
    <clipPath
       id="clipPath280"
       clipPathUnits="userSpaceOnUse">
      <path
         id="path278"
         d="M 0,0 H 1200 V 660 H 0 Z"
         inkscape:connector-curvature="0" />
    </clipPath>
    <clipPath
       id="clipPath292"
       clipPathUnits="userSpaceOnUse">
      <path
         style="clip-rule:evenodd"
         id="path290"
         d="m 283.1752,323.6119 v -21.5038 c 0,-6.687 -20.8582,-12.1076 -46.5882,-12.1076 -25.7288,0 -46.5869,5.4206 -46.5869,12.1076 v 21.5038"
         inkscape:connector-curvature="0" />
    </clipPath>
    <clipPath
       id="clipPath298"
       clipPathUnits="userSpaceOnUse">
      <path
         id="path296"
         d="M 0,0 H 1200 V 660 H 0 Z"
         inkscape:connector-curvature="0" />
    </clipPath>
    <clipPath
       id="clipPath308"
       clipPathUnits="userSpaceOnUse">
      <path
         id="path306"
         d="M 0,0 H 1200 V 660 H 0 Z"
         inkscape:connector-curvature="0" />
    </clipPath>
    <clipPath
       id="clipPath324"
       clipPathUnits="userSpaceOnUse">
      <path
         style="clip-rule:evenodd"
         id="path322"
         d="m 283.1751,355.985 v -21.3246 c 0,-6.6298 -20.8581,-12.0049 -46.5881,-12.0049 -25.7288,0 -46.5869,5.3751 -46.5869,12.0049 v 21.3246"
         inkscape:connector-curvature="0" />
    </clipPath>
    <clipPath
       id="clipPath330"
       clipPathUnits="userSpaceOnUse">
      <path
         id="path328"
         d="M 0,0 H 1200 V 660 H 0 Z"
         inkscape:connector-curvature="0" />
    </clipPath>
    <clipPath
       id="clipPath340"
       clipPathUnits="userSpaceOnUse">
      <path
         style="clip-rule:evenodd"
         id="path338"
         d="m 283.1751,345.985 v -21.3246 c 0,-6.6298 -20.8581,-12.0049 -46.5881,-12.0049 -25.7288,0 -46.5869,5.3751 -46.5869,12.0049 v 21.3246"
         inkscape:connector-curvature="0" />
    </clipPath>
    <clipPath
       id="clipPath346"
       clipPathUnits="userSpaceOnUse">
      <path
         id="path344"
         d="M 0,0 H 1200 V 660 H 0 Z"
         inkscape:connector-curvature="0" />
    </clipPath>
    <clipPath
       id="clipPath356"
       clipPathUnits="userSpaceOnUse">
      <path
         id="path354"
         d="M 0,0 H 1200 V 660 H 0 Z"
         inkscape:connector-curvature="0" />
    </clipPath>
    <clipPath
       id="clipPath368"
       clipPathUnits="userSpaceOnUse">
      <path
         style="clip-rule:evenodd"
         id="path366"
         d="m 283.1752,367.2212 v -21.3741 c 0,-6.6452 -20.8582,-12.0328 -46.5882,-12.0328 -25.7288,0 -46.5869,5.3876 -46.5869,12.0328 v 21.3741"
         inkscape:connector-curvature="0" />
    </clipPath>
    <clipPath
       id="clipPath374"
       clipPathUnits="userSpaceOnUse">
      <path
         id="path372"
         d="M 0,0 H 1200 V 660 H 0 Z"
         inkscape:connector-curvature="0" />
    </clipPath>
    <clipPath
       id="clipPath384"
       clipPathUnits="userSpaceOnUse">
      <path
         id="path382"
         d="M 0,0 H 1200 V 660 H 0 Z"
         inkscape:connector-curvature="0" />
    </clipPath>
    <clipPath
       id="clipPath396"
       clipPathUnits="userSpaceOnUse">
      <path
         style="clip-rule:evenodd"
         id="path394"
         d="M 283,366.5007 C 283,359.0442 262.1811,353 236.4994,353 210.8189,353 190,359.0442 190,366.5007 190,373.9558 210.8189,380 236.4994,380 262.1811,380 283,373.9558 283,366.5007 Z"
         inkscape:connector-curvature="0" />
    </clipPath>
    <clipPath
       id="clipPath402"
       clipPathUnits="userSpaceOnUse">
      <path
         id="path400"
         d="M 0,0 H 1200 V 660 H 0 Z"
         inkscape:connector-curvature="0" />
    </clipPath>
    <clipPath
       id="clipPath412-6"
       clipPathUnits="userSpaceOnUse">
      <path
         id="path410-7"
         d="M 0,0 H 1200 V 660 H 0 Z"
         inkscape:connector-curvature="0" />
    </clipPath>
    <clipPath
       id="clipPath424"
       clipPathUnits="userSpaceOnUse">
      <path
         style="clip-rule:evenodd"
         id="path422"
         d="m 524.3667,248.4658 h -142.449 c -3.268,0 -5.918,2.649 -5.918,5.917 v 18.7 c 0,3.268 2.65,5.917 5.918,5.917 h 142.449 c 3.268,0 5.917,-2.649 5.917,-5.917 v -18.7 c 0,-3.268 -2.649,-5.917 -5.917,-5.917"
         inkscape:connector-curvature="0" />
    </clipPath>
    <clipPath
       id="clipPath430"
       clipPathUnits="userSpaceOnUse">
      <path
         id="path428"
         d="M 0,0 H 1200 V 660 H 0 Z"
         inkscape:connector-curvature="0" />
    </clipPath>
    <clipPath
       id="clipPath440"
       clipPathUnits="userSpaceOnUse">
      <path
         id="path438"
         d="M 0,0 H 1200 V 660 H 0 Z"
         inkscape:connector-curvature="0" />
    </clipPath>
    <clipPath
       id="clipPath452"
       clipPathUnits="userSpaceOnUse">
      <path
         style="clip-rule:evenodd"
         id="path450"
         d="m 444.9531,259.2568 h 74.751 c 2.472,0 4.477,2.004 4.477,4.477 0,2.471 -2.005,4.475 -4.477,4.475 h -74.751 c -2.472,0 -4.476,-2.004 -4.476,-4.475 0,-2.473 2.004,-4.477 4.476,-4.477"
         inkscape:connector-curvature="0" />
    </clipPath>
    <clipPath
       id="clipPath458"
       clipPathUnits="userSpaceOnUse">
      <path
         id="path456"
         d="M 0,0 H 1200 V 660 H 0 Z"
         inkscape:connector-curvature="0" />
    </clipPath>
    <clipPath
       id="clipPath468"
       clipPathUnits="userSpaceOnUse">
      <path
         id="path466"
         d="M 0,0 H 1200 V 660 H 0 Z"
         inkscape:connector-curvature="0" />
    </clipPath>
    <clipPath
       id="clipPath480"
       clipPathUnits="userSpaceOnUse">
      <path
         style="clip-rule:evenodd"
         id="path478"
         d="m 383.8027,263.7334 c 0,2.497 2.025,4.521 4.522,4.521 2.498,0 4.522,-2.024 4.522,-4.521 0,-2.498 -2.024,-4.522 -4.522,-4.522 -2.497,0 -4.522,2.024 -4.522,4.522"
         inkscape:connector-curvature="0" />
    </clipPath>
    <clipPath
       id="clipPath486"
       clipPathUnits="userSpaceOnUse">
      <path
         id="path484"
         d="M 0,0 H 1200 V 660 H 0 Z"
         inkscape:connector-curvature="0" />
    </clipPath>
    <clipPath
       id="clipPath496"
       clipPathUnits="userSpaceOnUse">
      <path
         id="path494"
         d="M 0,0 H 1200 V 660 H 0 Z"
         inkscape:connector-curvature="0" />
    </clipPath>
    <clipPath
       id="clipPath508"
       clipPathUnits="userSpaceOnUse">
      <path
         style="clip-rule:evenodd"
         id="path506"
         d="m 397.3691,263.7334 c 0,2.497 2.025,4.521 4.522,4.521 2.498,0 4.522,-2.024 4.522,-4.521 0,-2.498 -2.024,-4.522 -4.522,-4.522 -2.497,0 -4.522,2.024 -4.522,4.522"
         inkscape:connector-curvature="0" />
    </clipPath>
    <clipPath
       id="clipPath514"
       clipPathUnits="userSpaceOnUse">
      <path
         id="path512"
         d="M 0,0 H 1200 V 660 H 0 Z"
         inkscape:connector-curvature="0" />
    </clipPath>
    <clipPath
       id="clipPath524"
       clipPathUnits="userSpaceOnUse">
      <path
         id="path522"
         d="M 0,0 H 1200 V 660 H 0 Z"
         inkscape:connector-curvature="0" />
    </clipPath>
    <clipPath
       id="clipPath536"
       clipPathUnits="userSpaceOnUse">
      <path
         style="clip-rule:evenodd"
         id="path534"
         d="m 410.4033,263.7334 c 0,2.497 2.025,4.521 4.522,4.521 2.498,0 4.522,-2.024 4.522,-4.521 0,-2.498 -2.024,-4.522 -4.522,-4.522 -2.497,0 -4.522,2.024 -4.522,4.522"
         inkscape:connector-curvature="0" />
    </clipPath>
    <clipPath
       id="clipPath542"
       clipPathUnits="userSpaceOnUse">
      <path
         id="path540"
         d="M 0,0 H 1200 V 660 H 0 Z"
         inkscape:connector-curvature="0" />
    </clipPath>
    <clipPath
       id="clipPath552"
       clipPathUnits="userSpaceOnUse">
      <path
         id="path550"
         d="M 0,0 H 1200 V 660 H 0 Z"
         inkscape:connector-curvature="0" />
    </clipPath>
    <clipPath
       id="clipPath564"
       clipPathUnits="userSpaceOnUse">
      <path
         style="clip-rule:evenodd"
         id="path562"
         d="m 457.9283,410.491 v 45.57 l -39.464,22.784 -39.464,-22.784 v -45.57 l 39.464,-22.784 z"
         inkscape:connector-curvature="0" />
    </clipPath>
    <clipPath
       id="clipPath570"
       clipPathUnits="userSpaceOnUse">
      <path
         id="path568"
         d="M 0,0 H 1200 V 660 H 0 Z"
         inkscape:connector-curvature="0" />
    </clipPath>
    <clipPath
       id="clipPath580"
       clipPathUnits="userSpaceOnUse">
      <path
         id="path578"
         d="M 0,0 H 1200 V 660 H 0 Z"
         inkscape:connector-curvature="0" />
    </clipPath>
    <clipPath
       id="clipPath600"
       clipPathUnits="userSpaceOnUse">
      <path
         style="clip-rule:evenodd"
         id="path598"
         d="m 265.9999,247.0001 v -87.814 h 64.397 v 73.117 l -14.575,14.697 z"
         inkscape:connector-curvature="0" />
    </clipPath>
    <clipPath
       id="clipPath606"
       clipPathUnits="userSpaceOnUse">
      <path
         id="path604"
         d="M 0,0 H 1200 V 660 H 0 Z"
         inkscape:connector-curvature="0" />
    </clipPath>
    <clipPath
       id="clipPath616"
       clipPathUnits="userSpaceOnUse">
      <path
         id="path614"
         d="M 0,0 H 1200 V 660 H 0 Z"
         inkscape:connector-curvature="0" />
    </clipPath>
    <clipPath
       id="clipPath268"
       clipPathUnits="userSpaceOnUse">
      <path
         id="path266"
         d="M 0,0 H 1200 V 660 H 0 Z"
         inkscape:connector-curvature="0" />
    </clipPath>
    <clipPath
       id="clipPath304"
       clipPathUnits="userSpaceOnUse">
      <path
         style="clip-rule:evenodd"
         id="path302"
         d="m 480.4273,431.0005 h -118.932 c -10.7662,0 -19.4955,-8.6363 -19.4955,-19.289 V 221.225 c 0,-10.6527 8.7293,-19.289 19.4955,-19.289 h 118.932 c 10.7663,0 19.4956,8.6363 19.4956,19.289 v 190.4865 c 0,10.6527 -8.7293,19.289 -19.4956,19.289 z"
         inkscape:connector-curvature="0" />
    </clipPath>
    <clipPath
       id="clipPath310-3"
       clipPathUnits="userSpaceOnUse">
      <path
         id="path308-5"
         d="M 0,0 H 1200 V 660 H 0 Z"
         inkscape:connector-curvature="0" />
    </clipPath>
    <clipPath
       id="clipPath320"
       clipPathUnits="userSpaceOnUse">
      <path
         id="path318"
         d="M 0,0 H 1200 V 660 H 0 Z"
         inkscape:connector-curvature="0" />
    </clipPath>
    <clipPath
       id="clipPath274"
       clipPathUnits="userSpaceOnUse">
      <path
         id="path272"
         d="M 0,0 H 1200 V 660 H 0 Z"
         inkscape:connector-curvature="0" />
    </clipPath>
    <clipPath
       id="clipPath350"
       clipPathUnits="userSpaceOnUse">
      <path
         style="clip-rule:evenodd"
         id="path348"
         d="m 205,356.8505 h 7.3337 v -7.127 H 205 Z"
         inkscape:connector-curvature="0" />
    </clipPath>
    <clipPath
       id="clipPath356-9"
       clipPathUnits="userSpaceOnUse">
      <path
         id="path354-3"
         d="M 0,0 H 1200 V 660 H 0 Z"
         inkscape:connector-curvature="0" />
    </clipPath>
    <clipPath
       id="clipPath362"
       clipPathUnits="userSpaceOnUse">
      <path
         id="path360"
         d="m 205,349 h 8 v 8 h -8 z"
         inkscape:connector-curvature="0" />
    </clipPath>
    <clipPath
       id="clipPath366"
       clipPathUnits="userSpaceOnUse">
      <path
         style="clip-rule:evenodd"
         id="path364"
         d="m 212.3337,353.6205 -4.597,-1.367 -1.365,4.597 -1.372,-2.531 1.366,-4.596 4.597,1.366 z"
         inkscape:connector-curvature="0" />
    </clipPath>
    <clipPath
       id="clipPath370"
       clipPathUnits="userSpaceOnUse">
      <path
         id="path368"
         d="m 205,349 h 8 v 8 h -8 z"
         inkscape:connector-curvature="0" />
    </clipPath>
    <clipPath
       id="clipPath392"
       clipPathUnits="userSpaceOnUse">
      <path
         id="path390"
         d="M 0,0 H 1200 V 660 H 0 Z"
         inkscape:connector-curvature="0" />
    </clipPath>
    <clipPath
       id="clipPath404"
       clipPathUnits="userSpaceOnUse">
      <path
         style="clip-rule:evenodd"
         id="path402"
         d="m 317.0454,163.3588 h 6.356 v -6.8538 h -6.356 z"
         inkscape:connector-curvature="0" />
    </clipPath>
    <clipPath
       id="clipPath410"
       clipPathUnits="userSpaceOnUse">
      <path
         id="path408"
         d="M 0,0 H 1200 V 660 H 0 Z"
         inkscape:connector-curvature="0" />
    </clipPath>
    <clipPath
       id="clipPath416"
       clipPathUnits="userSpaceOnUse">
      <path
         id="path414"
         d="m 317,156 h 7 v 8 h -7 z"
         inkscape:connector-curvature="0" />
    </clipPath>
    <clipPath
       id="clipPath420"
       clipPathUnits="userSpaceOnUse">
      <path
         style="clip-rule:evenodd"
         id="path418"
         d="m 317.2224,163.3588 3.303,-3.478 -3.48,-3.3 2.878,-0.076 3.478,3.301 -3.301,3.479 z"
         inkscape:connector-curvature="0" />
    </clipPath>
    <clipPath
       id="clipPath424-6"
       clipPathUnits="userSpaceOnUse">
      <path
         id="path422-0"
         d="m 317,156 h 7 v 8 h -7 z"
         inkscape:connector-curvature="0" />
    </clipPath>
    <clipPath
       id="clipPath446"
       clipPathUnits="userSpaceOnUse">
      <path
         id="path444"
         d="M 0,0 H 1200 V 660 H 0 Z"
         inkscape:connector-curvature="0" />
    </clipPath>
    <clipPath
       id="clipPath458-6"
       clipPathUnits="userSpaceOnUse">
      <path
         style="clip-rule:evenodd"
         id="path456-2"
         d="m 440.4978,341.5502 1.667,4.498 4.497,-1.67 -1.201,2.616 -4.496,1.668 -1.668,-4.495 z"
         inkscape:connector-curvature="0" />
    </clipPath>
    <clipPath
       id="clipPath464"
       clipPathUnits="userSpaceOnUse">
      <path
         id="path462"
         d="M 0,0 H 1200 V 660 H 0 Z"
         inkscape:connector-curvature="0" />
    </clipPath>
    <clipPath
       id="clipPath256"
       clipPathUnits="userSpaceOnUse">
      <path
         id="path254"
         d="M 0,0 H 1200 V 660 H 0 Z"
         inkscape:connector-curvature="0" />
    </clipPath>
    <clipPath
       id="clipPath272"
       clipPathUnits="userSpaceOnUse">
      <path
         style="clip-rule:evenodd"
         id="path270"
         d="m 403.9794,261.9568 c 0,5.2487 4.263,9.5036 9.5217,9.5036 5.2588,0 9.5209,-4.2549 9.5209,-9.5036 0,-5.2487 -4.2621,-9.5036 -9.5209,-9.5036 -5.2587,0 -9.5217,4.2549 -9.5217,9.5036"
         inkscape:connector-curvature="0" />
    </clipPath>
    <clipPath
       id="clipPath278-2"
       clipPathUnits="userSpaceOnUse">
      <path
         id="path276-2"
         d="M 0,0 H 1200 V 660 H 0 Z"
         inkscape:connector-curvature="0" />
    </clipPath>
    <clipPath
       id="clipPath288"
       clipPathUnits="userSpaceOnUse">
      <path
         id="path286"
         d="M 0,0 H 1200 V 660 H 0 Z"
         inkscape:connector-curvature="0" />
    </clipPath>
    <clipPath
       id="clipPath300"
       clipPathUnits="userSpaceOnUse">
      <path
         style="clip-rule:evenodd"
         id="path298"
         d="M 242,187.8733 H 423.8976 V 448.3502 H 242 Z"
         inkscape:connector-curvature="0" />
    </clipPath>
    <clipPath
       id="clipPath306"
       clipPathUnits="userSpaceOnUse">
      <path
         id="path304"
         d="M 0,0 H 1200 V 660 H 0 Z"
         inkscape:connector-curvature="0" />
    </clipPath>
    <clipPath
       id="clipPath312"
       clipPathUnits="userSpaceOnUse">
      <path
         id="path310"
         d="M 242,187 H 419 V 449 H 242 Z"
         inkscape:connector-curvature="0" />
    </clipPath>
    <clipPath
       id="clipPath316-8"
       clipPathUnits="userSpaceOnUse">
      <path
         id="path314-9"
         d="M 242,187 H 419 V 449 H 242 Z"
         inkscape:connector-curvature="0" />
    </clipPath>
    <clipPath
       id="clipPath320-7"
       clipPathUnits="userSpaceOnUse">
      <path
         style="clip-rule:evenodd"
         id="path318-3"
         d="m 261.918,261.9568 c 0,5.2487 -4.263,9.5036 -9.5218,9.5036 -5.2587,0 -9.5209,-4.2549 -9.5209,-9.5036 0,-5.2487 4.2622,-9.5036 9.5209,-9.5036 5.2588,0 9.5218,4.2549 9.5218,9.5036 z"
         inkscape:connector-curvature="0" />
    </clipPath>
    <clipPath
       id="clipPath324-6"
       clipPathUnits="userSpaceOnUse">
      <path
         id="path322-1"
         d="M 242,187 H 419 V 449 H 242 Z"
         inkscape:connector-curvature="0" />
    </clipPath>
    <clipPath
       id="clipPath328"
       clipPathUnits="userSpaceOnUse">
      <path
         id="path326"
         d="M 242,187 H 419 V 449 H 242 Z"
         inkscape:connector-curvature="0" />
    </clipPath>
    <clipPath
       id="clipPath332"
       clipPathUnits="userSpaceOnUse">
      <path
         style="clip-rule:evenodd"
         id="path330"
         d="m 372.2769,188.7469 h -78.6634 c -7.3421,0 -13.2938,5.9404 -13.2938,13.2677 0,7.3281 5.9517,13.2686 13.2938,13.2686 h 78.6634 c 7.3421,0 13.293,-5.9405 13.293,-13.2686 0,-7.3273 -5.9509,-13.2677 -13.293,-13.2677"
         inkscape:connector-curvature="0" />
    </clipPath>
    <clipPath
       id="clipPath336"
       clipPathUnits="userSpaceOnUse">
      <path
         id="path334"
         d="M 242,187 H 419 V 449 H 242 Z"
         inkscape:connector-curvature="0" />
    </clipPath>
    <clipPath
       id="clipPath340-2"
       clipPathUnits="userSpaceOnUse">
      <path
         id="path338-9"
         d="M 242,187 H 419 V 449 H 242 Z"
         inkscape:connector-curvature="0" />
    </clipPath>
    <clipPath
       id="clipPath344"
       clipPathUnits="userSpaceOnUse">
      <path
         style="clip-rule:evenodd"
         id="path342"
         d="m 285.6972,201.823 c 0,4.3536 3.5367,7.8836 7.8986,7.8836 4.3627,0 7.8995,-3.53 7.8995,-7.8836 0,-4.3544 -3.5368,-7.8845 -7.8995,-7.8845 -4.3619,0 -7.8986,3.5301 -7.8986,7.8845"
         inkscape:connector-curvature="0" />
    </clipPath>
    <clipPath
       id="clipPath348"
       clipPathUnits="userSpaceOnUse">
      <path
         id="path346"
         d="M 242,187 H 419 V 449 H 242 Z"
         inkscape:connector-curvature="0" />
    </clipPath>
    <clipPath
       id="clipPath352"
       clipPathUnits="userSpaceOnUse">
      <path
         id="path350"
         d="M 242,187 H 419 V 449 H 242 Z"
         inkscape:connector-curvature="0" />
    </clipPath>
    <clipPath
       id="clipPath356-3"
       clipPathUnits="userSpaceOnUse">
      <path
         style="clip-rule:evenodd"
         id="path354-1"
         d="m 305.3483,201.823 c 0,4.3536 3.5368,7.8836 7.8995,7.8836 4.3619,0 7.8987,-3.53 7.8987,-7.8836 0,-4.3544 -3.5368,-7.8845 -7.8987,-7.8845 -4.3627,0 -7.8995,3.5301 -7.8995,7.8845"
         inkscape:connector-curvature="0" />
    </clipPath>
    <clipPath
       id="clipPath360"
       clipPathUnits="userSpaceOnUse">
      <path
         id="path358"
         d="M 242,187 H 419 V 449 H 242 Z"
         inkscape:connector-curvature="0" />
    </clipPath>
    <clipPath
       id="clipPath364"
       clipPathUnits="userSpaceOnUse">
      <path
         id="path362"
         d="M 242,187 H 419 V 449 H 242 Z"
         inkscape:connector-curvature="0" />
    </clipPath>
    <clipPath
       id="clipPath368-9"
       clipPathUnits="userSpaceOnUse">
      <path
         style="clip-rule:evenodd"
         id="path366-4"
         d="m 325,201.823 c 0,4.3536 3.5367,7.8836 7.8986,7.8836 4.3627,0 7.8995,-3.53 7.8995,-7.8836 0,-4.3544 -3.5368,-7.8845 -7.8995,-7.8845 -4.3619,0 -7.8986,3.5301 -7.8986,7.8845"
         inkscape:connector-curvature="0" />
    </clipPath>
    <clipPath
       id="clipPath372"
       clipPathUnits="userSpaceOnUse">
      <path
         id="path370"
         d="M 242,187 H 419 V 449 H 242 Z"
         inkscape:connector-curvature="0" />
    </clipPath>
    <clipPath
       id="clipPath376"
       clipPathUnits="userSpaceOnUse">
      <path
         id="path374"
         d="M 242,187 H 419 V 449 H 242 Z"
         inkscape:connector-curvature="0" />
    </clipPath>
    <clipPath
       id="clipPath380"
       clipPathUnits="userSpaceOnUse">
      <path
         style="clip-rule:evenodd"
         id="path378"
         d="m 344.6512,201.823 c 0,4.3536 3.5367,7.8836 7.8986,7.8836 4.3627,0 7.8995,-3.53 7.8995,-7.8836 0,-4.3544 -3.5368,-7.8845 -7.8995,-7.8845 -4.3619,0 -7.8986,3.5301 -7.8986,7.8845"
         inkscape:connector-curvature="0" />
    </clipPath>
    <clipPath
       id="clipPath384-7"
       clipPathUnits="userSpaceOnUse">
      <path
         id="path382-8"
         d="M 242,187 H 419 V 449 H 242 Z"
         inkscape:connector-curvature="0" />
    </clipPath>
    <clipPath
       id="clipPath388"
       clipPathUnits="userSpaceOnUse">
      <path
         id="path386"
         d="M 242,187 H 419 V 449 H 242 Z"
         inkscape:connector-curvature="0" />
    </clipPath>
    <clipPath
       id="clipPath392-4"
       clipPathUnits="userSpaceOnUse">
      <path
         style="clip-rule:evenodd"
         id="path390-5"
         d="m 364.3023,201.823 c 0,4.3536 3.5368,7.8836 7.8995,7.8836 4.3628,0 7.8987,-3.53 7.8987,-7.8836 0,-4.3544 -3.5359,-7.8845 -7.8987,-7.8845 -4.3627,0 -7.8995,3.5301 -7.8995,7.8845"
         inkscape:connector-curvature="0" />
    </clipPath>
    <clipPath
       id="clipPath396-0"
       clipPathUnits="userSpaceOnUse">
      <path
         id="path394-3"
         d="M 242,187 H 419 V 449 H 242 Z"
         inkscape:connector-curvature="0" />
    </clipPath>
    <clipPath
       id="clipPath400"
       clipPathUnits="userSpaceOnUse">
      <path
         id="path398"
         d="M 242,187 H 419 V 449 H 242 Z"
         inkscape:connector-curvature="0" />
    </clipPath>
    <clipPath
       id="clipPath404-6"
       clipPathUnits="userSpaceOnUse">
      <path
         style="clip-rule:evenodd"
         id="path402-1"
         d="M 399.1182,297.7771 H 266.7719 c -4.9149,0 -8.8997,3.9772 -8.8997,8.8827 v 80.9222 c 0,4.9063 3.9848,8.8835 8.8997,8.8835 h 132.3463 c 4.9158,0 8.8997,-3.9772 8.8997,-8.8835 v -80.9222 c 0,-4.9055 -3.9839,-8.8827 -8.8997,-8.8827"
         inkscape:connector-curvature="0" />
    </clipPath>
    <clipPath
       id="clipPath408"
       clipPathUnits="userSpaceOnUse">
      <path
         id="path406"
         d="M 242,187 H 419 V 449 H 242 Z"
         inkscape:connector-curvature="0" />
    </clipPath>
    <clipPath
       id="clipPath412-0"
       clipPathUnits="userSpaceOnUse">
      <path
         id="path410-6"
         d="M 242,187 H 419 V 449 H 242 Z"
         inkscape:connector-curvature="0" />
    </clipPath>
    <clipPath
       id="clipPath416-3"
       clipPathUnits="userSpaceOnUse">
      <path
         style="clip-rule:evenodd"
         id="path414-2"
         d="m 295.9586,318.6105 h 73.9743 v 8.0416 h -73.9743 z"
         inkscape:connector-curvature="0" />
    </clipPath>
    <clipPath
       id="clipPath420-0"
       clipPathUnits="userSpaceOnUse">
      <path
         id="path418-6"
         d="M 242,187 H 419 V 449 H 242 Z"
         inkscape:connector-curvature="0" />
    </clipPath>
    <clipPath
       id="clipPath424-1"
       clipPathUnits="userSpaceOnUse">
      <path
         id="path422-5"
         d="M 242,187 H 419 V 449 H 242 Z"
         inkscape:connector-curvature="0" />
    </clipPath>
    <clipPath
       id="clipPath428"
       clipPathUnits="userSpaceOnUse">
      <path
         style="clip-rule:evenodd"
         id="path426"
         d="m 327.7434,442.2856 c 0,2.8672 2.3292,5.1911 5.2018,5.1911 2.8735,0 5.2019,-2.3239 5.2019,-5.1911 0,-2.868 -2.3284,-5.1919 -5.2019,-5.1919 -2.8726,0 -5.2018,2.3239 -5.2018,5.1919"
         inkscape:connector-curvature="0" />
    </clipPath>
    <clipPath
       id="clipPath432"
       clipPathUnits="userSpaceOnUse">
      <path
         id="path430"
         d="M 242,187 H 419 V 449 H 242 Z"
         inkscape:connector-curvature="0" />
    </clipPath>
    <clipPath
       id="clipPath436"
       clipPathUnits="userSpaceOnUse">
      <path
         id="path434"
         d="M 242,187 H 419 V 449 H 242 Z"
         inkscape:connector-curvature="0" />
    </clipPath>
  </defs>
  <metadata
     id="metadata1640">
    <rdf:RDF>
      <cc:Work
         rdf:about="">
        <dc:format>image/svg+xml</dc:format>
        <dc:type
           rdf:resource="http://purl.org/dc/dcmitype/StillImage" />
        <dc:title></dc:title>
      </cc:Work>
    </rdf:RDF>
  </metadata>
  <g
     transform="translate(0,-172)"
     id="layer1">
    <g
       id="g1549"
       transform="matrix(0.35277777,0,0,-0.35277777,-42.478881,359.22275)">
      <g
         id="g250">
        <g
           id="g252"
           clip-path="url(#clipPath256)">
          <g
             id="g258"
             transform="matrix(1,0,0,-1,304,298)">
            <path
               d="M 0,82 H 58 V 0 H 0 Z"
               style="fill:none;stroke:#9acaeb;stroke-width:2;stroke-linecap:butt;stroke-linejoin:miter;stroke-miterlimit:10;stroke-dasharray:none;stroke-opacity:1"
               id="path260-5"
               inkscape:connector-curvature="0" />
          </g>
          <g
             id="g262"
             transform="matrix(1,0,0,-1,362,266)">
            <path
               d="M 0,9 H 46 V 0 H 0 Z"
               style="fill:none;stroke:#9acaeb;stroke-width:2;stroke-linecap:butt;stroke-linejoin:miter;stroke-miterlimit:10;stroke-dasharray:none;stroke-opacity:1"
               id="path264"
               inkscape:connector-curvature="0" />
          </g>
        </g>
      </g>
      <g
         id="g266">
        <g
           id="g268"
           clip-path="url(#clipPath272)">
          <g
             id="g274"
             clip-path="url(#clipPath278-2)">
            <path
               d="m 398.9794,247.4532 h 29.04262 v 29.00723 H 398.9794 Z"
               style="fill:#1077b4;fill-opacity:1;fill-rule:nonzero;stroke:none"
               id="path280"
               inkscape:connector-curvature="0" />
          </g>
        </g>
      </g>
      <g
         id="g282">
        <g
           id="g284"
           clip-path="url(#clipPath288)">
          <g
             id="g290"
             transform="matrix(1,0,0,-1,403.9794,271.4604)">
            <path
               d="M 0,9.503613 C 0,4.25488 4.263,0 9.52175,0 c 5.25875,0 9.52087,4.25488 9.52087,9.503613 0,5.248737 -4.26212,9.503617 -9.52087,9.503617 C 4.263,19.00723 0,14.75235 0,9.503613 Z"
               style="fill:none;stroke:#f78d2c;stroke-width:2;stroke-linecap:butt;stroke-linejoin:miter;stroke-miterlimit:10;stroke-dasharray:none;stroke-opacity:1"
               id="path292-4"
               inkscape:connector-curvature="0" />
          </g>
        </g>
      </g>
      <g
         id="g294">
        <g
           id="g296"
           clip-path="url(#clipPath300)">
          <g
             id="g302"
             clip-path="url(#clipPath306)">
            <g
               id="g308" />
            <g
               id="g626">
              <g
                 clip-path="url(#clipPath312)"
                 id="g624">
                <g
                   id="g438" />
                <g
                   id="g446">
                  <g
                     clip-path="url(#clipPath316-8)"
                     id="g444">
                    <g
                       transform="matrix(1,0,0,-1,258.2557,265.9773)"
                       id="g442">
                      <path
                         d="M 0,9.137687 H 45.77562 V 0 H 0 Z"
                         style="fill:none;stroke:#9acaeb;stroke-width:2;stroke-linecap:butt;stroke-linejoin:miter;stroke-miterlimit:10;stroke-dasharray:none;stroke-opacity:1"
                         id="path440"
                         inkscape:connector-curvature="0" />
                    </g>
                  </g>
                </g>
                <g
                   id="g454">
                  <g
                     clip-path="url(#clipPath320-7)"
                     id="g452">
                    <g
                       clip-path="url(#clipPath324-6)"
                       id="g450">
                      <path
                         d="m 237.8753,247.4532 h 29.04262 v 29.00723 H 237.8753 Z"
                         style="fill:#1077b4;fill-opacity:1;fill-rule:nonzero;stroke:none"
                         id="path448-7"
                         inkscape:connector-curvature="0" />
                    </g>
                  </g>
                </g>
                <g
                   id="g462">
                  <g
                     clip-path="url(#clipPath328)"
                     id="g460">
                    <g
                       transform="matrix(1,0,0,-1,242.8753,271.4604)"
                       id="g458">
                      <path
                         d="M 19.04262,9.503613 C 19.04262,4.25488 14.77963,0 9.520875,0 4.262125,0 0,4.25488 0,9.503613 c 0,5.248737 4.262125,9.503617 9.520875,9.503617 5.258755,0 9.521745,-4.25488 9.521745,-9.503617 z"
                         style="fill:none;stroke:#f78d2c;stroke-width:2;stroke-linecap:butt;stroke-linejoin:miter;stroke-miterlimit:10;stroke-dasharray:none;stroke-opacity:1"
                         id="path456-6"
                         inkscape:connector-curvature="0" />
                    </g>
                  </g>
                </g>
                <g
                   id="g470">
                  <g
                     clip-path="url(#clipPath332)"
                     id="g468">
                    <g
                       clip-path="url(#clipPath336)"
                       id="g466">
                      <path
                         d="m 275.3197,183.7469 h 115.2502 v 36.53623 H 275.3197 Z"
                         style="fill:#1077b4;fill-opacity:1;fill-rule:nonzero;stroke:none"
                         id="path464-5"
                         inkscape:connector-curvature="0" />
                    </g>
                  </g>
                </g>
                <g
                   id="g478">
                  <g
                     clip-path="url(#clipPath340-2)"
                     id="g476">
                    <g
                       transform="matrix(1,0,0,-1,280.3197,215.2832)"
                       id="g474">
                      <path
                         d="M 91.95725,26.53623 H 13.29388 C 5.95175,26.53623 0,20.59582 0,13.26855 0,5.940413 5.95175,0 13.29388,0 h 78.66337 c 7.34212,0 13.29295,5.940413 13.29295,13.26855 0,7.32727 -5.95083,13.26768 -13.29295,13.26768 z"
                         style="fill:none;stroke:#f78d2c;stroke-width:2;stroke-linecap:butt;stroke-linejoin:miter;stroke-miterlimit:10;stroke-dasharray:none;stroke-opacity:1"
                         id="path472"
                         inkscape:connector-curvature="0" />
                    </g>
                  </g>
                </g>
                <g
                   id="g486">
                  <g
                     clip-path="url(#clipPath344)"
                     id="g484">
                    <g
                       clip-path="url(#clipPath348)"
                       id="g482">
                      <path
                         d="m 280.6972,188.9385 h 25.79812 v 25.76803 H 280.6972 Z"
                         style="fill:#1077b4;fill-opacity:1;fill-rule:nonzero;stroke:none"
                         id="path480"
                         inkscape:connector-curvature="0" />
                    </g>
                  </g>
                </g>
                <g
                   id="g494">
                  <g
                     clip-path="url(#clipPath352)"
                     id="g492">
                    <g
                       transform="matrix(1,0,0,-1,285.6972,209.7066)"
                       id="g490">
                      <path
                         d="M 0,7.88358 C 0,3.530013 3.53675,0 7.898625,0 c 4.362745,0 7.899505,3.530013 7.899505,7.88358 0,4.35444 -3.53676,7.88445 -7.899505,7.88445 C 3.53675,15.76803 0,12.23802 0,7.88358 Z"
                         style="fill:none;stroke:#bde093;stroke-width:2;stroke-linecap:butt;stroke-linejoin:miter;stroke-miterlimit:10;stroke-dasharray:none;stroke-opacity:1"
                         id="path488"
                         inkscape:connector-curvature="0" />
                    </g>
                  </g>
                </g>
                <g
                   id="g502">
                  <g
                     clip-path="url(#clipPath356-3)"
                     id="g500">
                    <g
                       clip-path="url(#clipPath360)"
                       id="g498">
                      <path
                         d="m 300.3483,188.9385 h 25.79813 v 25.76803 H 300.3483 Z"
                         style="fill:#1077b4;fill-opacity:1;fill-rule:nonzero;stroke:none"
                         id="path496"
                         inkscape:connector-curvature="0" />
                    </g>
                  </g>
                </g>
                <g
                   id="g510">
                  <g
                     clip-path="url(#clipPath364)"
                     id="g508">
                    <g
                       transform="matrix(1,0,0,-1,305.3483,209.7066)"
                       id="g506">
                      <path
                         d="M 0,7.88358 C 0,3.530013 3.53675,0 7.8995,0 c 4.36188,0 7.89863,3.530013 7.89863,7.88358 0,4.35444 -3.53675,7.88445 -7.89863,7.88445 C 3.53675,15.76803 0,12.23802 0,7.88358 Z"
                         style="fill:none;stroke:#bde093;stroke-width:2;stroke-linecap:butt;stroke-linejoin:miter;stroke-miterlimit:10;stroke-dasharray:none;stroke-opacity:1"
                         id="path504"
                         inkscape:connector-curvature="0" />
                    </g>
                  </g>
                </g>
                <g
                   id="g518">
                  <g
                     clip-path="url(#clipPath368-9)"
                     id="g516">
                    <g
                       clip-path="url(#clipPath372)"
                       id="g514">
                      <path
                         d="m 320,188.9385 h 25.79812 v 25.76803 H 320 Z"
                         style="fill:#1077b4;fill-opacity:1;fill-rule:nonzero;stroke:none"
                         id="path512-6"
                         inkscape:connector-curvature="0" />
                    </g>
                  </g>
                </g>
                <g
                   id="g526">
                  <g
                     clip-path="url(#clipPath376)"
                     id="g524">
                    <g
                       transform="matrix(1,0,0,-1,325,209.7066)"
                       id="g522">
                      <path
                         d="M 0,7.88358 C 0,3.530013 3.53675,0 7.898625,0 c 4.362745,0 7.899495,3.530013 7.899495,7.88358 0,4.35444 -3.53675,7.88445 -7.899495,7.88445 C 3.53675,15.76803 0,12.23802 0,7.88358 Z"
                         style="fill:none;stroke:#bde093;stroke-width:2;stroke-linecap:butt;stroke-linejoin:miter;stroke-miterlimit:10;stroke-dasharray:none;stroke-opacity:1"
                         id="path520"
                         inkscape:connector-curvature="0" />
                    </g>
                  </g>
                </g>
                <g
                   id="g534">
                  <g
                     clip-path="url(#clipPath380)"
                     id="g532">
                    <g
                       clip-path="url(#clipPath384-7)"
                       id="g530">
                      <path
                         d="m 339.6512,188.9385 h 25.79813 v 25.76803 H 339.6512 Z"
                         style="fill:#1077b4;fill-opacity:1;fill-rule:nonzero;stroke:none"
                         id="path528"
                         inkscape:connector-curvature="0" />
                    </g>
                  </g>
                </g>
                <g
                   id="g542">
                  <g
                     clip-path="url(#clipPath388)"
                     id="g540">
                    <g
                       transform="matrix(1,0,0,-1,344.6512,209.7066)"
                       id="g538">
                      <path
                         d="M 0,7.88358 C 0,3.530013 3.53675,0 7.898625,0 c 4.362755,0 7.899505,3.530013 7.899505,7.88358 0,4.35444 -3.53675,7.88445 -7.899505,7.88445 C 3.53675,15.76803 0,12.23802 0,7.88358 Z"
                         style="fill:none;stroke:#bde093;stroke-width:2;stroke-linecap:butt;stroke-linejoin:miter;stroke-miterlimit:10;stroke-dasharray:none;stroke-opacity:1"
                         id="path536"
                         inkscape:connector-curvature="0" />
                    </g>
                  </g>
                </g>
                <g
                   id="g550">
                  <g
                     clip-path="url(#clipPath392-4)"
                     id="g548">
                    <g
                       clip-path="url(#clipPath396-0)"
                       id="g546">
                      <path
                         d="m 359.3023,188.9385 h 25.79813 v 25.76803 H 359.3023 Z"
                         style="fill:#1077b4;fill-opacity:1;fill-rule:nonzero;stroke:none"
                         id="path544"
                         inkscape:connector-curvature="0" />
                    </g>
                  </g>
                </g>
                <g
                   id="g562">
                  <g
                     clip-path="url(#clipPath400)"
                     id="g560">
                    <g
                       transform="matrix(1,0,0,-1,364.3023,209.7066)"
                       id="g554">
                      <path
                         d="M 0,7.88358 C 0,3.530013 3.53675,0 7.8995,0 c 4.36275,0 7.89863,3.530013 7.89863,7.88358 0,4.35444 -3.53588,7.88445 -7.89863,7.88445 C 3.53675,15.76803 0,12.23802 0,7.88358 Z"
                         style="fill:none;stroke:#bde093;stroke-width:2;stroke-linecap:butt;stroke-linejoin:miter;stroke-miterlimit:10;stroke-dasharray:none;stroke-opacity:1"
                         id="path552"
                         inkscape:connector-curvature="0" />
                    </g>
                    <g
                       transform="matrix(1,0,0,-1,308.6702,413.3452)"
                       id="g558">
                      <path
                         d="M 0,24.22889 C 0,10.84767 10.86838,0 24.27513,0 37.68188,0 48.55025,10.84767 48.55025,24.22889 48.55025,37.6101 37.68188,48.45777 24.27513,48.45777 10.86838,48.45777 0,37.6101 0,24.22889 Z"
                         style="fill:none;stroke:#f78d2c;stroke-width:2;stroke-linecap:butt;stroke-linejoin:miter;stroke-miterlimit:10;stroke-dasharray:none;stroke-opacity:1"
                         id="path556"
                         inkscape:connector-curvature="0" />
                    </g>
                  </g>
                </g>
                <g
                   id="g570">
                  <g
                     clip-path="url(#clipPath404-6)"
                     id="g568">
                    <g
                       clip-path="url(#clipPath408)"
                       id="g566">
                      <path
                         d="M 252.8722,292.7771 H 413.0178 V 401.4655 H 252.8722 Z"
                         style="fill:#1077b4;fill-opacity:1;fill-rule:nonzero;stroke:none"
                         id="path564"
                         inkscape:connector-curvature="0" />
                    </g>
                  </g>
                </g>
                <g
                   id="g586">
                  <g
                     clip-path="url(#clipPath412-0)"
                     id="g584">
                    <g
                       transform="matrix(1,0,0,-1,257.8722,396.4655)"
                       id="g574">
                      <path
                         d="M 141.246,98.68841 H 8.899625 C 3.98475,98.68841 0,94.71125 0,89.80574 V 8.883547 C 0,3.97716 3.98475,0 8.899625,0 H 141.246 c 4.9157,0 8.8996,3.97716 8.8996,8.883547 V 89.80574 c 0,4.90551 -3.9839,8.88267 -8.8996,8.88267 z"
                         style="fill:none;stroke:#bde093;stroke-width:2;stroke-linecap:butt;stroke-linejoin:miter;stroke-miterlimit:10;stroke-dasharray:none;stroke-opacity:1"
                         id="path572"
                         inkscape:connector-curvature="0" />
                    </g>
                    <g
                       transform="matrix(1,0,0,-1,284.6056,371.245)"
                       id="g578">
                      <path
                         d="M 0,11.69655 C 0,5.23738 5.2465,0 11.71888,0 c 6.47237,0 11.71887,5.23738 11.71887,11.69655 0,6.45918 -5.2465,11.69656 -11.71887,11.69656 C 5.2465,23.39311 0,18.15573 0,11.69655 Z"
                         style="fill:none;stroke:#febf85;stroke-width:2;stroke-linecap:butt;stroke-linejoin:miter;stroke-miterlimit:10;stroke-dasharray:none;stroke-opacity:1"
                         id="path576"
                         inkscape:connector-curvature="0" />
                    </g>
                    <g
                       transform="matrix(1,0,0,-1,357.8476,371.245)"
                       id="g582">
                      <path
                         d="M 0,11.69655 C 0,5.23738 5.2465,0 11.71888,0 c 6.47237,0 11.71887,5.23738 11.71887,11.69655 0,6.45918 -5.2465,11.69656 -11.71887,11.69656 C 5.2465,23.39311 0,18.15573 0,11.69655 Z"
                         style="fill:none;stroke:#febf85;stroke-width:2;stroke-linecap:butt;stroke-linejoin:miter;stroke-miterlimit:10;stroke-dasharray:none;stroke-opacity:1"
                         id="path580"
                         inkscape:connector-curvature="0" />
                    </g>
                  </g>
                </g>
                <g
                   id="g594">
                  <g
                     clip-path="url(#clipPath416-3)"
                     id="g592">
                    <g
                       clip-path="url(#clipPath420-0)"
                       id="g590">
                      <path
                         d="m 290.9586,313.6105 h 83.97425 v 18.04165 H 290.9586 Z"
                         style="fill:#1077b4;fill-opacity:1;fill-rule:nonzero;stroke:none"
                         id="path588"
                         inkscape:connector-curvature="0" />
                    </g>
                  </g>
                </g>
                <g
                   id="g606">
                  <g
                     clip-path="url(#clipPath424-1)"
                     id="g604">
                    <g
                       transform="matrix(1,0,0,-1,295.9586,326.6521)"
                       id="g598">
                      <path
                         d="M 0,8.041653 H 73.97425 V 0 H 0 Z"
                         style="fill:none;stroke:#9acaeb;stroke-width:2;stroke-linecap:butt;stroke-linejoin:miter;stroke-miterlimit:10;stroke-dasharray:none;stroke-opacity:1"
                         id="path596"
                         inkscape:connector-curvature="0" />
                    </g>
                    <g
                       transform="matrix(1,0,0,-1,332.5075,441.4196)"
                       id="g602">
                      <path
                         d="M 0.4375,28.07417 V 0"
                         style="fill:none;stroke:#9acaeb;stroke-width:2;stroke-linecap:butt;stroke-linejoin:miter;stroke-miterlimit:10;stroke-dasharray:none;stroke-opacity:1"
                         id="path600"
                         inkscape:connector-curvature="0" />
                    </g>
                  </g>
                </g>
                <g
                   id="g614">
                  <g
                     clip-path="url(#clipPath428)"
                     id="g612">
                    <g
                       clip-path="url(#clipPath432)"
                       id="g610">
                      <path
                         d="m 322.7434,432.0937 h 20.40375 v 20.38306 H 322.7434 Z"
                         style="fill:#1077b4;fill-opacity:1;fill-rule:nonzero;stroke:none"
                         id="path608"
                         inkscape:connector-curvature="0" />
                    </g>
                  </g>
                </g>
                <g
                   id="g622">
                  <g
                     clip-path="url(#clipPath436)"
                     id="g620">
                    <g
                       transform="matrix(1,0,0,-1,327.7434,447.4767)"
                       id="g618">
                      <path
                         d="M 0,5.191093 C 0,2.32394 2.32925,0 5.201875,0 c 2.8735,0 5.201875,2.32394 5.201875,5.191093 0,2.868027 -2.328375,5.191967 -5.201875,5.191967 C 2.32925,10.38306 0,8.05912 0,5.191093 Z"
                         style="fill:none;stroke:#febf85;stroke-width:2;stroke-linecap:butt;stroke-linejoin:miter;stroke-miterlimit:10;stroke-dasharray:none;stroke-opacity:1"
                         id="path616"
                         inkscape:connector-curvature="0" />
                    </g>
                  </g>
                </g>
              </g>
            </g>
          </g>
        </g>
      </g>
    </g>
  </g>
</svg>
