<?xml version="1.0" encoding="UTF-8" standalone="no"?>
<svg
   xmlns:dc="http://purl.org/dc/elements/1.1/"
   xmlns:cc="http://creativecommons.org/ns#"
   xmlns:rdf="http://www.w3.org/1999/02/22-rdf-syntax-ns#"
   xmlns:svg="http://www.w3.org/2000/svg"
   xmlns="http://www.w3.org/2000/svg"
   id="svg1894"
   version="1.1"
   viewBox="0 0 4.2333332 4.2333332"
   height="16"
   width="16">
  <defs
     id="defs1888">
    <clipPath
       id="clipPath80"
       clipPathUnits="userSpaceOnUse">
      <path
         style="clip-rule:evenodd"
         id="path78"
         d="m 569,84 c 3.3137,0 6,2.68629 6,6 0,3.31371 -2.6863,6 -6,6 -3.3137,0 -6,-2.68629 -6,-6 0,-3.31371 2.6863,-6 6,-6 z" />
    </clipPath>
    <clipPath
       id="clipPath86"
       clipPathUnits="userSpaceOnUse">
      <path
         id="path84"
         d="M 0,0 H 1200 V 660 H 0 Z" />
    </clipPath>
  </defs>
  <metadata
     id="metadata1891">
    <rdf:RDF>
      <cc:Work
         rdf:about="">
        <dc:format>image/svg+xml</dc:format>
        <dc:type
           rdf:resource="http://purl.org/dc/dcmitype/StillImage" />
        <dc:title></dc:title>
      </cc:Work>
    </rdf:RDF>
  </metadata>
  <g
     transform="translate(0,-292.76667)"
     id="layer1">
    <g
       id="g74"
       transform="matrix(0.35277776,0,0,-0.35277776,-198.61388,326.63334)">
      <g
         clip-path="url(#clipPath80)"
         id="g76">
        <g
           clip-path="url(#clipPath86)"
           id="g82">
          <path
             id="path88"
             style="fill:#9acaeb;fill-opacity:1;fill-rule:nonzero;stroke:none"
             d="m 558,79 h 22 v 22 h -22 z" />
        </g>
      </g>
    </g>
  </g>
</svg>
