<?xml version="1.0" encoding="UTF-8" standalone="no"?>
<svg
   xmlns:dc="http://purl.org/dc/elements/1.1/"
   xmlns:cc="http://creativecommons.org/ns#"
   xmlns:rdf="http://www.w3.org/1999/02/22-rdf-syntax-ns#"
   xmlns:svg="http://www.w3.org/2000/svg"
   xmlns="http://www.w3.org/2000/svg"
   xmlns:sodipodi="http://sodipodi.sourceforge.net/DTD/sodipodi-0.dtd"
   xmlns:inkscape="http://www.inkscape.org/namespaces/inkscape"
   width="407.26047mm"
   height="205.82729mm"
   version="1.1"
   id="svg6"
   sodipodi:docname="title-playwork-work.svg"
   style="fill:none"
   inkscape:version="0.92.3 (2405546, 2018-03-11)">
  <metadata
     id="metadata12">
    <rdf:RDF>
      <cc:Work
         rdf:about="">
        <dc:format>image/svg+xml</dc:format>
        <dc:type
           rdf:resource="http://purl.org/dc/dcmitype/StillImage" />
        <dc:title />
      </cc:Work>
    </rdf:RDF>
  </metadata>
  <defs
     id="defs10">
    <mask
       id="b"
       maskUnits="userSpaceOnUse"
       x="1100"
       y="7"
       width="346"
       height="360">
      <path
         style="clip-rule:evenodd;fill:#ffffff;fill-rule:evenodd"
         inkscape:connector-curvature="0"
         d="m 1100.87,7.55 h 344.81 V 366.96 H 1100.87 V 7.551 Z"
         id="path25" />
    </mask>
    <mask
       id="a"
       maskUnits="userSpaceOnUse"
       x="442"
       y="0"
       width="356"
       height="375">
      <path
         style="clip-rule:evenodd;fill:#ffffff;fill-rule:evenodd"
         inkscape:connector-curvature="0"
         d="M 442.967,0 H 797.341 V 374.51 H 442.967 Z"
         id="path16" />
    </mask>
  </defs>
  <sodipodi:namedview
     pagecolor="#ffffff"
     bordercolor="#666666"
     borderopacity="1"
     objecttolerance="10"
     gridtolerance="10"
     guidetolerance="10"
     inkscape:pageopacity="0"
     inkscape:pageshadow="2"
     inkscape:window-width="1920"
     inkscape:window-height="1129"
     id="namedview8"
     showgrid="false"
     units="mm"
     fit-margin-top="0"
     fit-margin-left="0"
     fit-margin-right="0"
     fit-margin-bottom="0"
     inkscape:zoom="0.62932503"
     inkscape:cx="434.03044"
     inkscape:cy="397.87123"
     inkscape:window-x="1920"
     inkscape:window-y="40"
     inkscape:window-maximized="1"
     inkscape:current-layer="g5218" />
  <g
     id="g5218"
     transform="translate(83.353574,14.451591)"
     style="fill:#ffffff">
    <g
       style="fill:#ffffff"
       transform="matrix(1.0820985,0,0,1.0820985,50.848128,375.00494)"
       id="g1440">
      <path
         inkscape:connector-curvature="0"
         d="m 95.96,166.93 h 64.488 c 30.439,0 51.591,-12.067 51.591,-44.749 0,-34.19 -22.184,-47.263 -51.591,-47.263 H 95.96 Z M 0,0 H 174.894 C 243.51,0 308,30.671 308,115.645 308,204.64 255.892,239.333 174.894,239.333 H 95.96 V 359 H 0 Z m 322,0 h 95.688 V 278.552 H 589 V 359 H 322 Z"
         id="path2"
         style="clip-rule:evenodd;fill:#ffffff;fill-rule:evenodd" />
      <path
         inkscape:connector-curvature="0"
         d="m 701.937,225.255 h 83.577 l -40.757,-125.7 h -1.032 z M 695.747,0 h 97.506 L 931,359 H 830.914 l -22.7,-64.358 H 679.753 L 656.537,359 H 558 Z M 1065.95,225.255 V 359 H 970.051 V 225.255 L 836,0 H 944.788 L 1018,145.813 1091.21,0 H 1200 Z"
         id="path4"
         style="clip-rule:evenodd;fill:#ffffff;fill-rule:evenodd" />
    </g>
    <g
       style="fill:#f78d2c;fill-opacity:1"
       transform="matrix(1.0647254,0,0,1.0647254,-119.0996,-396.68801)"
       id="g1436">
      <path
         inkscape:connector-curvature="0"
         d="m 424.693,366.551 -50.84,262.759 h -1.007 L 319.991,366.551 h -88.09 L 179.047,629.31 h -1.006 L 127.201,366.551 H 33.573 l 97.15,359.407 h 95.137 l 49.331,-247.659 h 1.007 l 49.331,247.659 h 93.627 L 518.32,366.551 Z"
         id="path14"
         style="clip-rule:evenodd;fill:#f78d2c;fill-rule:evenodd;fill-opacity:1" />
      <g
         mask="url(#a)"
         id="g21"
         style="fill:#f78d2c;fill-opacity:1"
         transform="translate(33.573,359)">
        <path
           inkscape:connector-curvature="0"
           d="m 620.154,293.97 c 60.404,0 83.56,-52.854 83.56,-106.715 0,-53.861 -23.156,-106.715 -83.56,-106.715 -60.405,0 -83.56,52.854 -83.56,106.715 0,53.861 23.155,106.715 83.56,106.715 m 0,-293.97 c 112.755,0 177.187,83.057 177.187,187.255 0,104.198 -64.432,187.255 -177.187,187.255 -112.755,0 -177.187,-83.057 -177.187,-187.255 C 442.967,83.057 507.399,0 620.154,0"
           id="path19"
           style="clip-rule:evenodd;fill:#f78d2c;fill-rule:evenodd;fill-opacity:1" />
      </g>
      <path
         inkscape:connector-curvature="0"
         d="m 914.976,522.596 h 78.526 c 28.189,0 43.291,-14.598 43.291,-42.283 0,-26.679 -21.142,-38.76 -47.318,-38.76 H 914.976 Z M 821.349,366.551 h 183.228 c 62.926,0 125.846,28.692 125.846,101.177 0,38.76 -18.12,75.506 -56.38,90.104 v 1.007 c 37.75,9.564 49.83,51.847 52.35,86.076 1.51,15.605 2.52,66.949 15.1,81.043 h -92.62 c -8.05,-12.584 -9.06,-46.813 -10.57,-57.384 -2.52,-36.243 -8.055,-73.493 -52.351,-73.493 h -70.976 v 130.877 h -93.627 z"
         id="path23"
         style="clip-rule:evenodd;fill:#f78d2c;fill-rule:evenodd;fill-opacity:1" />
      <g
         mask="url(#b)"
         id="g30"
         style="fill:#f78d2c;fill-opacity:1"
         transform="translate(33.573,359)">
        <path
           inkscape:connector-curvature="0"
           d="m 1100.87,7.55 h 93.62 V 145.475 L 1312.79,7.551 h 116.27 l -132.88,141.448 149.5,217.96 H 1329.4 l -96.65,-151.012 -38.26,40.27 v 110.742 h -93.62 V 7.551 Z"
           id="path28"
           style="clip-rule:evenodd;fill:#f78d2c;fill-rule:evenodd;fill-opacity:1" />
      </g>
    </g>
  </g>
</svg>
